Siesta Version  : v4.1.5-1-g384057250
Architecture    : x86_64-linux-gcc
Compiler version: GNU Fortran (GCC) 11.2.0
Compiler flags  : mpifort -m64 -fPIC -O3 -ftree-vectorize -fexpensive-optimizations -funroll-loops -fprefetch-loop-arrays -fgraphite -fipa-icf -fipa-pure-const -march=native -fschedule-fusion -fselective-scheduling -fstack-arrays -fmax-stack-var-size=10000 -fipa-sra -fipa-cp -fcheck=recursion,array-temps -fno-second-underscore -Wrealloc-lhs -Wrealloc-lhs-all -fallow-argument-mismatch
PP flags        : -DSIESTA__FLOOK -DSIESTA__METIS -DSIESTA__FFTW -DTS_PVT_METIS -DSIESTA__MRRR -DSIESTA__SCALAPACK_RESET -DMPI -DFC_HAVE_FLUSH -DFC_HAVE_ABORT -DCDF -DGRID_DP -DMPI_TIMING -DTRANSIESTA_TIMING -DTBTRANS_TIMING -DSIESTA__MUMPS -DNCDF_PARALLEL -DNCDF -DNCDF_4 -DSCALAPACK_DEBUG -D_DIAG_WORK -DSIESTA__DIAG_2STAGE -DSIESTA__ELPA
Libraries       : libncdf.a libfdict.a  -lzmumps -lmumps_common -lpord -lparmetis -lmetis -lesmumps -lscotch -lscotcherr -L/opt/gnu/11.2.0/elpa/2020.05.001/lib -Wl,-rpath=/opt/gnu/11.2.0/elpa/2020.05.001/lib -lelpa -L/opt/gnu/11.2.0/scalapack-debug/2.1.0/lib -Wl,-rpath=/opt/gnu/11.2.0/scalapack-debug/2.1.0/lib -lscalapack  -L/opt/gnu/11.2.0/openblas/0.3.18/lib -Wl,-rpath=/opt/gnu/11.2.0/openblas/0.3.18/lib -lopenblas -L/home/nicpa/codes/flook/obj -lflookall -ldl -l:libnetcdff.so  -m64 -fPIC -O3 -ftree-vectorize -fexpensive-optimizations -funroll-loops -fprefetch-loop-arrays -fgraphite -fipa-icf -fipa-pure-const -march=native -fschedule-fusion -fselective-scheduling -fstack-arrays -fmax-stack-var-size=10000 -fipa-sra -fipa-cp -fcheck=recursion,array-temps -fno-second-underscore -Wrealloc-lhs -Wrealloc-lhs-all -fallow-argument-mismatch -L/opt/gnu/11.2.0/fftw/3.3.10/lib -Wl,-rpath=/opt/gnu/11.2.0/fftw/3.3.10/lib -lfftw3
PARALLEL version
NetCDF support
NetCDF-4 support
NetCDF-4 MPI-IO support
METIS ordering support
Lua support

* Running on 6 nodes in parallel
>> Start of run:   3-NOV-2021  23:01:13

                           ***********************       
                           *  WELCOME TO SIESTA  *       
                           ***********************       

reinit: Reading from ts_au_100_1x1_0.25V.fdf

reinit: -----------------------------------------------------------------------
reinit: System Name: Au 100 + chain without Bloch expansion
reinit: -----------------------------------------------------------------------
reinit: System Label: ts_au_100_1x1_0.25V
reinit: -----------------------------------------------------------------------

initatom: Reading input for the pseudopotentials and atomic orbitals ----------
Species number:   1 Atomic number:   79 Label: Au

Ground state valence configuration:   6s01  5d10
Reading pseudopotential information in formatted form from Au.psf

Pseudopotential generated from a relativistic atomic calculation

Valence configuration for pseudopotential generation:
6s( 1.00) rc: 2.29
6p( 0.00) rc: 3.14
5d(10.00) rc: 1.20
5f( 0.00) rc: 3.14
For Au, standard SIESTA heuristics set lmxkb to 3
 (one more than the basis l, including polarization orbitals).
Use PS.lmax or PS.KBprojectors blocks to override.
Au: nkbl increased for l=1 due to the presence of a polarization orbital

<basis_specs>
===============================================================================
Au                   Z=  79    Mass=  196.97        Charge= 0.17977+309
Lmxo=2 Lmxkb= 3    BasisType=split      Semic=F
L=0  Nsemic=0  Cnfigmx=6
          i=1  nzeta=1  polorb=1  (6s)
            splnorm:   0.15000    
               vcte:    0.0000    
               rinn:    0.0000    
               qcoe:    0.0000    
               qyuk:    0.0000    
               qwid:   0.10000E-01
                rcs:    0.0000    
            lambdas:    1.0000    
L=1  Nsemic=0  Cnfigmx=6
L=2  Nsemic=0  Cnfigmx=5
          i=1  nzeta=1  polorb=0  (5d)
            splnorm:   0.15000    
               vcte:    0.0000    
               rinn:    0.0000    
               qcoe:    0.0000    
               qyuk:    0.0000    
               qwid:   0.10000E-01
                rcs:    0.0000    
            lambdas:    1.0000    
-------------------------------------------------------------------------------
L=0  Nkbl=1  erefs: 0.17977+309
L=1  Nkbl=2  erefs: 0.17977+309 0.17977+309
L=2  Nkbl=1  erefs: 0.17977+309
L=3  Nkbl=1  erefs: 0.17977+309
===============================================================================
</basis_specs>

atom: Called for Au                    (Z =  79)

read_vps: Pseudopotential generation method:
read_vps: ATM3      Troullier-Martins                       
Valence charge for ps generation:   11.00000

read_vps: Pseudopotential includes a core correction:
read_vps: Pseudo-core for xc-correction

xc_check: Exchange-correlation functional:
xc_check: GGA Perdew, Burke & Ernzerhof 1996
V l=0 = -2*Zval/r beyond r=  2.9833
V l=1 = -2*Zval/r beyond r=  3.1363
V l=2 = -2*Zval/r beyond r=  2.9833
V l=3 = -2*Zval/r beyond r=  3.1363
All V_l potentials equal beyond r=  3.0973
This should be close to max(r_c) in ps generation
All pots = -2*Zval/r beyond r=  3.1363

VLOCAL1: 99.0% of the norm of Vloc inside      4.525 Ry
VLOCAL1: 99.9% of the norm of Vloc inside     10.312 Ry
atom: Maximum radius for 4*pi*r*r*local-pseudopot. charge    3.73611
atom: Maximum radius for r*vlocal+2*Zval:    3.29710
GHOST: No ghost state for L =  0
KBgen: More than one KB projector for l=  1
KBgen: ghost states analysis will be not performed
GHOST: No ghost state for L =  2
GHOST: No ghost state for L =  3

KBgen: Kleinman-Bylander projectors: 
   l= 0   rc=  3.423088   el= -0.421435   Ekb=  5.114239   kbcos=  0.182513
   l= 1   rc=  3.553892   el= -0.058080   Ekb=  1.612319   kbcos=  0.221966
   l= 1   rc=  3.830686   el=  0.001066   Ekb=-27.109983   kbcos= -0.000104
   l= 2   rc=  3.256140   el= -0.508574   Ekb= -6.472599   kbcos= -0.707183
   l= 3   rc=  3.643860   el=  0.003083   Ekb= -1.026026   kbcos= -0.026089

KBgen: Total number of Kleinman-Bylander projectors:   19
atom: -------------------------------------------------------------------------

atom: SANKEY-TYPE ORBITALS:

SPLIT: Orbitals with angular momentum L= 0

SPLIT: Basis orbitals for state 6s

SPLIT: PAO cut-off radius determined from an
SPLIT: energy shift=  0.005000 Ry

   izeta = 1
                 lambda =    1.000000
                     rc =    7.246712
                 energy =   -0.416422
                kinetic =    0.363232
    potential(screened) =   -0.779654
       potential(ionic) =   -8.332754

SPLIT: Orbitals with angular momentum L= 2

SPLIT: Basis orbitals for state 5d

SPLIT: PAO cut-off radius determined from an
SPLIT: energy shift=  0.005000 Ry

   izeta = 1
                 lambda =    1.000000
                     rc =    5.106662
                 energy =   -0.503595
                kinetic =    4.974612
    potential(screened) =   -5.478207
       potential(ionic) =  -15.919605

POLgen: Perturbative polarization orbital with L=  1

POLgen: Polarization orbital for state 6s

   izeta = 1
                     rc =    7.246712
                 energy =   -0.086468
                kinetic =    0.638528
    potential(screened) =   -0.724996
       potential(ionic) =   -7.799440
atom: Total number of Sankey-type orbitals:  9

atm_pop: Valence configuration (for local Pseudopot. screening):
 6s( 1.00)                                                            
 6p( 0.00)                                                            
 5d(10.00)                                                            
Vna: chval, zval:   11.00000  11.00000

Vna:  Cut-off radius for the neutral-atom potential:   7.246712
comcore: Pseudo-core radius Rcore=  4.027091

atom: _________________________________________________________________________

prinput: Basis input ----------------------------------------------------------

PAO.BasisType split     

%block ChemicalSpeciesLabel
    1   79 Au                      # Species index, atomic number, species label
%endblock ChemicalSpeciesLabel

%block PAO.Basis                 # Define Basis set
Au                    2                    # Species label, number of l-shells
 n=6   0   1 P   1                   # n, l, Nzeta, Polarization, NzetaPol
   7.247   
   1.000   
 n=5   2   1                         # n, l, Nzeta 
   5.107   
   1.000   
%endblock PAO.Basis

prinput: ----------------------------------------------------------------------

Dumping basis to NetCDF file Au.ion.nc
coor:   Atomic-coordinates input format  =     Cartesian coordinates
coor:                                          (in Angstroms)

siesta: WARNING: XV file not found

siesta: Atomic coordinates (Bohr) and species
siesta:      0.00000   0.00000   0.00000  1        1
siesta:      5.44944   0.00000   0.00000  1        2
siesta:     10.89889   0.00000   0.00000  1        3
siesta:      0.00000   5.44944   0.00000  1        4
siesta:      5.44944   5.44944   0.00000  1        5
siesta:     10.89889   5.44944   0.00000  1        6
siesta:      0.00000  10.89889   0.00000  1        7
siesta:      5.44944  10.89889   0.00000  1        8
siesta:     10.89889  10.89889   0.00000  1        9
siesta:      2.72472   2.72472   3.85334  1       10
siesta:      8.17416   2.72472   3.85334  1       11
siesta:     13.62361   2.72472   3.85334  1       12
siesta:      2.72472   8.17416   3.85334  1       13
siesta:      8.17416   8.17416   3.85334  1       14
siesta:     13.62361   8.17416   3.85334  1       15
siesta:      2.72472  13.62361   3.85334  1       16
siesta:      8.17416  13.62361   3.85334  1       17
siesta:     13.62361  13.62361   3.85334  1       18
siesta:      0.00000   0.00000   7.70668  1       19
siesta:      5.44944   0.00000   7.70668  1       20
siesta:     10.89889   0.00000   7.70668  1       21
siesta:      0.00000   5.44944   7.70668  1       22
siesta:      5.44944   5.44944   7.70668  1       23
siesta:     10.89889   5.44944   7.70668  1       24
siesta:      0.00000  10.89889   7.70668  1       25
siesta:      5.44944  10.89889   7.70668  1       26
siesta:     10.89889  10.89889   7.70668  1       27
siesta:      2.72472   2.72472  11.56003  1       28
siesta:      8.17416   2.72472  11.56003  1       29
siesta:     13.62361   2.72472  11.56003  1       30
siesta:      2.72472   8.17416  11.56003  1       31
siesta:      8.17416   8.17416  11.56003  1       32
siesta:     13.62361   8.17416  11.56003  1       33
siesta:      2.72472  13.62361  11.56003  1       34
siesta:      8.17416  13.62361  11.56003  1       35
siesta:     13.62361  13.62361  11.56003  1       36
siesta:      0.00000   0.00000  15.41337  1       37
siesta:      5.44944   0.00000  15.41337  1       38
siesta:     10.89889   0.00000  15.41337  1       39
siesta:      0.00000   5.44944  15.41337  1       40
siesta:      5.44944   5.44944  15.41337  1       41
siesta:     10.89889   5.44944  15.41337  1       42
siesta:      0.00000  10.89889  15.41337  1       43
siesta:      5.44944  10.89889  15.41337  1       44
siesta:     10.89889  10.89889  15.41337  1       45
siesta:      2.72472   2.72472  19.26671  1       46
siesta:      8.17416   2.72472  19.26671  1       47
siesta:     13.62361   2.72472  19.26671  1       48
siesta:      2.72472   8.17416  19.26671  1       49
siesta:      8.17416   8.17416  19.26671  1       50
siesta:     13.62361   8.17416  19.26671  1       51
siesta:      2.72472  13.62361  19.26671  1       52
siesta:      8.17416  13.62361  19.26671  1       53
siesta:     13.62361  13.62361  19.26671  1       54
siesta:      0.00000   0.00000  23.12005  1       55
siesta:      2.72472   2.72472  26.97339  1       56
siesta:      0.00000   0.00000  30.82674  1       57
siesta:      2.72472   2.72472  34.68008  1       58
siesta:      0.00000   0.00000  38.53342  1       59
siesta:      5.44944   0.00000  38.53342  1       60
siesta:     10.89889   0.00000  38.53342  1       61
siesta:      0.00000   5.44944  38.53342  1       62
siesta:      5.44944   5.44944  38.53342  1       63
siesta:     10.89889   5.44944  38.53342  1       64
siesta:      0.00000  10.89889  38.53342  1       65
siesta:      5.44944  10.89889  38.53342  1       66
siesta:     10.89889  10.89889  38.53342  1       67
siesta:      2.72472   2.72472  42.38676  1       68
siesta:      8.17416   2.72472  42.38676  1       69
siesta:     13.62361   2.72472  42.38676  1       70
siesta:      2.72472   8.17416  42.38676  1       71
siesta:      8.17416   8.17416  42.38676  1       72
siesta:     13.62361   8.17416  42.38676  1       73
siesta:      2.72472  13.62361  42.38676  1       74
siesta:      8.17416  13.62361  42.38676  1       75
siesta:     13.62361  13.62361  42.38676  1       76
siesta:      0.00000   0.00000  46.24010  1       77
siesta:      5.44944   0.00000  46.24010  1       78
siesta:     10.89889   0.00000  46.24010  1       79
siesta:      0.00000   5.44944  46.24010  1       80
siesta:      5.44944   5.44944  46.24010  1       81
siesta:     10.89889   5.44944  46.24010  1       82
siesta:      0.00000  10.89889  46.24010  1       83
siesta:      5.44944  10.89889  46.24010  1       84
siesta:     10.89889  10.89889  46.24010  1       85
siesta:      2.72472   2.72472  50.09345  1       86
siesta:      8.17416   2.72472  50.09345  1       87
siesta:     13.62361   2.72472  50.09345  1       88
siesta:      2.72472   8.17416  50.09345  1       89
siesta:      8.17416   8.17416  50.09345  1       90
siesta:     13.62361   8.17416  50.09345  1       91
siesta:      2.72472  13.62361  50.09345  1       92
siesta:      8.17416  13.62361  50.09345  1       93
siesta:     13.62361  13.62361  50.09345  1       94
siesta:      0.00000   0.00000  53.94679  1       95
siesta:      5.44944   0.00000  53.94679  1       96
siesta:     10.89889   0.00000  53.94679  1       97
siesta:      0.00000   5.44944  53.94679  1       98
siesta:      5.44944   5.44944  53.94679  1       99
siesta:     10.89889   5.44944  53.94679  1      100
siesta:      0.00000  10.89889  53.94679  1      101
siesta:      5.44944  10.89889  53.94679  1      102
siesta:     10.89889  10.89889  53.94679  1      103
siesta:      2.72472   2.72472  57.80013  1      104
siesta:      8.17416   2.72472  57.80013  1      105
siesta:     13.62361   2.72472  57.80013  1      106
siesta:      2.72472   8.17416  57.80013  1      107
siesta:      8.17416   8.17416  57.80013  1      108
siesta:     13.62361   8.17416  57.80013  1      109
siesta:      2.72472  13.62361  57.80013  1      110
siesta:      8.17416  13.62361  57.80013  1      111
siesta:     13.62361  13.62361  57.80013  1      112

siesta: System type = bulk      

initatomlists: Number of atoms, orbitals, and projectors:    112  1008  2128

coxmol: Writing XMOL coordinates into file ts_au_100_1x1_0.25V.xyz                                             

siesta: ******************** Simulation parameters ****************************
siesta:
siesta: The following are some of the parameters of the simulation.
siesta: A complete list of the parameters used, including default values,
siesta: can be found in file out.fdf
siesta:
redata: Spin configuration                          = none
redata: Number of spin components                   = 1
redata: Time-Reversal Symmetry                      = T
redata: Spin spiral                                 = F
redata: Long output                                 =   F
redata: Number of Atomic Species                    =        1
redata: Charge density info will appear in .RHO file
redata: Write Mulliken Pop.                         = Atomic and Orbital charges
redata: Matel table size (NRTAB)                    =     1024
redata: Mesh Cutoff                                 =   300.0000 Ry
redata: Net charge of the system                    =     0.0000 |e|
redata: Min. number of SCF Iter                     =        0
redata: Max. number of SCF Iter                     =      300
redata: SCF convergence failure will abort job
redata: SCF mix quantity                            = Hamiltonian
redata: Mix DM or H after convergence               =   F
redata: Recompute H after scf cycle                 =   F
redata: Mix DM in first SCF step                    =   T
redata: Write Pulay info on disk                    =   F
redata: New DM Occupancy tolerance                  = 0.000000000001
redata: No kicks to SCF
redata: DM Mixing Weight for Kicks                  =     0.5000
redata: Require Harris convergence for SCF          =   F
redata: Harris energy tolerance for SCF             =     0.000100 eV
redata: Require DM convergence for SCF              =   T
redata: DM tolerance for SCF                        =     0.000100
redata: Require EDM convergence for SCF             =   F
redata: EDM tolerance for SCF                       =     0.001000 eV
redata: Require H convergence for SCF               =   T
redata: Hamiltonian tolerance for SCF               =     0.001000 eV
redata: Require (free) Energy convergence for SCF   =   F
redata: (free) Energy tolerance for SCF             =     0.000100 eV
redata: Using Saved Data (generic)                  =   F
redata: Use continuation files for DM               =   T
redata: Neglect nonoverlap interactions             =   F
redata: Method of Calculation                       = Transiesta
redata: Fix the spin of the system                  =   F
redata: Dynamics option                             = Single-point calculation
mix.SCF: Pulay mixing                            = Pulay
mix.SCF:    Variant                              = stable
mix.SCF:    History steps                        = 5
mix.SCF:    Linear mixing weight                 =     0.050000
mix.SCF:    Mixing weight                        =     0.050000
mix.SCF:    SVD condition                        = 0.1000E-07
redata: Save all siesta data in one NC              =   F
redata: ***********************************************************************

%block SCF.Mixers
  Pulay
%endblock SCF.Mixers

%block SCF.Mixer.Pulay
  # Mixing method
  method pulay
  variant stable

  # Mixing options
  weight 0.0500
  weight.linear 0.0500
  history 5
%endblock SCF.Mixer.Pulay

DM_history_depth set to one: no extrapolation allowed by default for geometry relaxation
Size of DM history Fstack: 1
Total number of electrons:  1232.000000
Total ionic charge:  1232.000000

* ProcessorY, Blocksize:    2  24


* Orbital distribution balance (max,min):   168   168

k-point displ. along   1 input, could be:     0.00    0.50
k-point displ. along   2 input, could be:     0.00    0.50
k-point displ. along   3 input, could be:     0.00    0.50
 Kpoints in:            8 . Kpoints trimmed:            8

siesta: k-grid: Number of k-points =     8
siesta: k-grid: Cutoff (effective) =     8.651 Ang
siesta: k-grid: Supercell and displacements
siesta: k-grid:    2   0   0      0.000
siesta: k-grid:    0   2   0      0.000
siesta: k-grid:    0   0   2      0.000

diag: Algorithm                                     = D&C
diag: Parallel over k                               =   F
diag: Use parallel 2D distribution                  =   T
diag: Parallel block-size                           = 24
diag: Parallel distribution                         =     2 x     3
diag: Used triangular part                          = Lower
diag: Absolute tolerance                            =  0.100E-15
diag: Orthogonalization factor                      =  0.100E-05
diag: Memory factor                                 =  1.0000

superc: Internal auxiliary supercell:     5 x     5 x     3  =      75
superc: Number of atoms, orbitals, and projectors:   8400  75600 159600

k-point displ. along   1 input, could be:     0.00    0.50
k-point displ. along   2 input, could be:     0.00    0.50
 Kpoints in:            4 . Kpoints trimmed:            4

transiesta: k-grid: Number of Green function k-points =     4
transiesta: k-grid: Supercell and displacements
transiesta: k-grid:    2   0   0      0.000
transiesta: k-grid:    0   2   0      0.000
transiesta: k-grid:    0   0   1      0.000
Electrode: Left has very few k-points in the semi-infinite direction, at least 20 is recommended.
Electrode: Right has very few k-points in the semi-infinite direction, at least 20 is recommended.

ts: **************************************************************
ts: Voltage                                         =    0.2500 Volts
ts: Save H and S matrices                           =    T
ts: Electronic temperature                          =  299.986869 K
ts: Transport along unit-cell vector                =    A3
ts: Transport along Cartesian vector                =    Z
ts: Fixing Hartree potential at cell boundary       =    -C
ts: Fix Hartree potential fraction                  =    1.0000
ts: Hartree potential offset                        =    0.000000 eV
ts: Solution method                                 =    BTD
ts: BTD pivoting method                             =    atom+Left
ts: BTD creation algorithm                          =    speed
ts: BTD spectral function algorithm                 =    propagation
ts: SCF DM tolerance                                = 0.100E-03
ts: SCF Hamiltonian tolerance                       =    0.001000 eV
ts: SCF converge charge                             =    T
ts: SCF charge tolerance                            = 0.123E+01
ts: Initialize DM by                                =    diagon
ts: Hartree potential ramp across entire cell
ts: Non-equilibrium contour weight method           =    orb-orb
ts: Non-equilibrium contour weight k-method         =    Correlated k-points
ts: Will not correct charge fluctuations
ts: TS.SCF mixing options same as SCF
ts:           >> Electrodes << 
ts: >> Left
ts:   Electrode cell pivoting: E1, E2, E3           = A1, A2, A3
ts:   GF file                                       = ts_au_100_1x1_0.25V.TSGFLeft
ts:   Reuse existing GF-file                        =    F
ts:   Electrode TSHS file                           = ./ts_au_100_elec_3x3.TSHS
ts:   # atoms used in electrode                     =   36
ts:   Electrode Bloch unity [E1 x E2 x E3]          = 1 x 1 x 1
ts:   Position in geometry                          = 1 -- 36
ts:   Semi-infinite direction for electrode         = negative wrt. E3
ts:   Chemical shift                                =    0.125000 eV
ts:   Electronic temperature                        =  299.986869 K
ts:   Gamma-only electrode                          =    F
ts:   Bulk H, S in electrode region                 =    T
ts:   Initial DM for electrodes                     = diagon
ts:   Cross-terms are not updated
ts:   Manual delta-Ef shift                         =    0.000000 eV
ts:   Hamiltonian E-C bias fractional shift         =    0.0000
ts:   Electrode self-energy imaginary Eta           =  0.1000E-02 eV
ts:   Electrode self-energy accuracy                =  0.1000E-12 eV
ts:   Electrode inter-layer distance (semi-inf)     =    2.0391 Ang
ts: >> Right
ts:   Electrode cell pivoting: E1, E2, E3           = A1, A2, A3
ts:   GF file                                       = ts_au_100_1x1_0.25V.TSGFRight
ts:   Reuse existing GF-file                        =    F
ts:   Electrode TSHS file                           = ./ts_au_100_elec_3x3.TSHS
ts:   # atoms used in electrode                     =   36
ts:   Electrode Bloch unity [E1 x E2 x E3]          = 1 x 1 x 1
ts:   Position in geometry                          = 77 -- 112
ts:   Semi-infinite direction for electrode         = positive wrt. E3
ts:   Chemical shift                                =   -0.125000 eV
ts:   Electronic temperature                        =  299.986869 K
ts:   Gamma-only electrode                          =    F
ts:   Bulk H, S in electrode region                 =    T
ts:   Initial DM for electrodes                     = diagon
ts:   Cross-terms are not updated
ts:   Manual delta-Ef shift                         =    0.000000 eV
ts:   Hamiltonian E-C bias fractional shift         =    0.0000
ts:   Electrode self-energy imaginary Eta           =  0.1000E-02 eV
ts:   Electrode self-energy accuracy                =  0.1000E-12 eV
ts:   Electrode inter-layer distance (semi-inf)     =    2.0391 Ang
ts:  ----------------- Contour ----------------- 
ts:            >> Residual contour << 
ts: Pole chemical potential                         =    0.1250 eV
ts:    Chemical potential temperature               =  299.9869 K
ts:    Number of poles                              =   16
ts:    Top energy point                             =    2.5988 eV
ts: Pole chemical potential                         =   -0.1250 eV
ts:    Chemical potential temperature               =  299.9869 K
ts:    Number of poles                              =   16
ts:    Top energy point                             =    2.5988 eV
ts:          >> Equilibrium contour << 
ts: Contour name                                    =    TS.Contour.c-Left
ts:   circle contour E_min                          =  -39.8750 eV
ts:   circle contour E_max                          =   -0.1335 eV
ts:   circle contour points                         =   30
ts:   circle contour method                         =    Gauss-Legendre
ts: Contour name                                    =    TS.Contour.t-Left
ts:   tail contour E_min                            =   -0.1335 eV
ts:   tail contour E_max                            =     Infinity
ts:   tail contour points                           =   10
ts:   tail contour method                           =    Gauss-Fermi (0kT)
ts: Contour name                                    =    TS.Contour.c-Right
ts:   circle contour E_min                          =  -40.1250 eV
ts:   circle contour E_max                          =   -0.3835 eV
ts:   circle contour points                         =   30
ts:   circle contour method                         =    Gauss-Legendre
ts: Contour name                                    =    TS.Contour.t-Right
ts:   tail contour E_min                            =   -0.3835 eV
ts:   tail contour E_max                            =     Infinity
ts:   tail contour points                           =   10
ts:   tail contour method                           =    Gauss-Fermi (0kT)
ts:         >> non-Equilibrium contour << 
ts: Device Green function imaginary Eta             = 0.1000E-03 eV
ts: Fermi-function cut-off                          =  5.000     kT
ts: Contour name                                    =    TS.Contour.nEq.neq
ts:   line contour E_min                            =   -0.2543 eV
ts:   line contour E_max                            =    0.2543 eV
ts:   line contour points                           =   51
ts:   line contour method                           =    Mid-rule
ts: **************************************************************

************************ Begin: TS CHECKS AND WARNINGS ************************
Without loosing performance you can increase the equilibrium integration precision.
You can add 2 more energy points in the equilibrium contours, for FREE!
This is 1 more energy points per chemical potential.
Without loosing performance you can increase the non-equilibrium integration precision.
You can add 3 more energy points in the non-equilibrium contours, for FREE!
You are initializing the electrode EDM. This may result in erroneous forces on electrode atoms. Do not use forces from electrodes.
Electrode Left will not update cross-terms or local region.
Electrode Right will not update cross-terms or local region.
Consider updating more elements. The charge conservation and force accuracy improves.
  TS.Elecs.DM.Update [cross-terms|all]
************************ End: TS CHECKS AND WARNINGS **************************

                  ****************************************
                   TRANSIESTA REPORTED IMPORTANT WARNINGS
                  ****************************************

>>> TranSiesta block information for FDF-file START <<<

%block TS.ChemPots
  Left
  Right
%endblock TS.ChemPots

%block TS.ChemPot.Left
  mu  V/2
  contour.eq
   begin
    c-Left
    t-Left
   end
%endblock TS.ChemPot.Left
%block TS.ChemPot.Right
  mu  - V/2
  contour.eq
   begin
    c-Right
    t-Right
   end
%endblock TS.ChemPot.Right
%block TS.Contour.c-Left
  part circle
     from -40.00000 eV + V/2 to -10. kT + V/2
      points 30
        method g-legendre
%endblock TS.Contour.c-Left
%block TS.Contour.t-Left
  part tail
     from prev to + inf
      points 10
        method g-fermi
%endblock TS.Contour.t-Left
%block TS.Contour.c-Right
  part circle
     from -40.00000 eV - V/2 to -10. kT - V/2
      points 30
        method g-legendre
%endblock TS.Contour.c-Right
%block TS.Contour.t-Right
  part tail
     from prev to + inf
      points 10
        method g-fermi
%endblock TS.Contour.t-Right
%block TS.Contours.nEq
    neq
%endblock TS.Contours.nEq

%block TS.Contour.nEq.neq
  part line
     from - |V|/2 - 5 kT to |V|/2 + 5 kT
      delta 0.01 eV
        method mid-rule
%endblock TS.Contour.nEq.neq

>>> TranSiesta block information for FDF-file END <<<


transiesta: Regions of atoms:
   ## (36): Elec.Left
     [ 1 -- 36 ]
   ## (36): Elec.Right
     [ 77 -- 112 ]
   -- (40): Device
     [ 37 -- 76 ]

  <sparsity:./ts_au_100_elec_3x3.TSHS
    nrows_g=324 nrows=324 sparsity=5.1814 nnzs=543924, refcount: 3>
  <sparsity:(TM [--,--, 0] of: ./ts_au_100_elec_3x3.TSHS)
    nrows_g=324 nrows=324 sparsity=2.9781 nnzs=312624, refcount: 3>
  <sparsity:(TM [--,--,-1] of: ./ts_au_100_elec_3x3.TSHS)
    nrows_g=324 nrows=324 sparsity=1.1017 nnzs=115650, refcount: 3>
 Left principal cell is perfect!

Calculating all surface Green functions for: Left
 Fermi level shift in electrode (chemical potential) :        0.12500  eV
 Atoms available    / used atoms   :     36 /     36
 Orbitals available / used orbitals:    324 /    324
 Total self-energy calculations: 652
 Saving surface Green functions in: ts_au_100_1x1_0.25V.TSGFLeft
 Estimated file size:   1057.192 MB
 Lopez Sancho, Lopez Sancho & Rubio recursive surface self-energy calculation...
 Lopez Sancho, Lopez Sancho & Rubio: Mean/std iterations:     7.8282 /     5.3876
 Lopez Sancho, Lopez Sancho & Rubio: Min/Max iterations :          3 /         16
Done creating 'ts_au_100_1x1_0.25V.TSGFLeft'.

  <sparsity:./ts_au_100_elec_3x3.TSHS
    nrows_g=324 nrows=324 sparsity=5.1814 nnzs=543924, refcount: 3>
  <sparsity:(TM [--,--, 0] of: ./ts_au_100_elec_3x3.TSHS)
    nrows_g=324 nrows=324 sparsity=2.9781 nnzs=312624, refcount: 3>
  <sparsity:(TM [--,--, 1] of: ./ts_au_100_elec_3x3.TSHS)
    nrows_g=324 nrows=324 sparsity=1.1017 nnzs=115650, refcount: 3>
 Right principal cell is perfect!

Calculating all surface Green functions for: Right
 Fermi level shift in electrode (chemical potential) :       -0.12500  eV
 Atoms available    / used atoms   :     36 /     36
 Orbitals available / used orbitals:    324 /    324
 Total self-energy calculations: 652
 Saving surface Green functions in: ts_au_100_1x1_0.25V.TSGFRight
 Estimated file size:   1057.192 MB
 Lopez Sancho, Lopez Sancho & Rubio recursive surface self-energy calculation...
 Lopez Sancho, Lopez Sancho & Rubio: Mean/std iterations:     7.8834 /     5.4157
 Lopez Sancho, Lopez Sancho & Rubio: Min/Max iterations :          3 /         16
Done creating 'ts_au_100_1x1_0.25V.TSGFRight'.


                     ====================================
                        Single-point calculation
                     ====================================

superc: Internal auxiliary supercell:     5 x     5 x     3  =      75
superc: Number of atoms, orbitals, and projectors:   8400  75600 159600

outcell: Unit cell vectors (Ang):
        8.651160    0.000000    0.000000
        0.000000    8.651160    0.000000
        0.000000    0.000000   32.625600

outcell: Cell vector modules (Ang)   :    8.651160    8.651160   32.625600
outcell: Cell angles (23,13,12) (deg):     90.0000     90.0000     90.0000
outcell: Cell volume (Ang**3)        :   2441.7837
<dSpData1D:S at geom step 0
  <sparsity:sparsity for geom step 0
    nrows_g=1008 nrows=168 sparsity=.2287 nnzs=232396, refcount: 7>
  <dData1D:(new from dSpData1D) n=232396, refcount: 1>
refcount: 1>
new_DM -- step:     1
Initializing Density Matrix...

Attempting to read DM, EDM from TSDE file... Succeeded...
DM from file:
<dSpData2D:IO-TSDE: ts_au_100_1x1_0.25V.TSDE
  <sparsity:IO-TSDE: ts_au_100_1x1_0.25V.TSDE
    nrows_g=1008 nrows=168 sparsity=.2287 nnzs=232396, refcount: 2>
  <dData2D:(new from dSpData2D) n=232396 m=1, refcount: 1>
refcount: 1>
DM to be used:
<dSpData2D:Re-structured SpM
  <sparsity:sparsity for geom step 0
    nrows_g=1008 nrows=168 sparsity=.2287 nnzs=232396, refcount: 8>
  <dData2D:(new in restruct) n=232396 m=1, refcount: 1>
refcount: 1>

transiesta: Starting immediately

                     ***************************
                     *  WELCOME TO TRANSIESTA  *
                     ***************************

No. of atoms with KB's overlaping orbs in proc 0. Max # of overlaps:     402     315
New grid distribution:   1
           1       1:   48    1:   24    1:   60
           2       1:   48    1:   24   61:  120
           3       1:   48    1:   24  121:  180
           4       1:   48   25:   48    1:   60
           5       1:   48   25:   48   61:  120
           6       1:   48   25:   48  121:  180

InitMesh: MESH =    96 x    96 x   360 =     3317760
InitMesh: (bp) =    48 x    48 x   180 =      414720
InitMesh: Mesh cutoff (required, used) =   300.000   336.504 Ry
ExtMesh (bp) on 0 =   136 x   112 x   148 =     2254336
New grid distribution:   2
           1       1:   48   25:   48  138:  180
           2       1:   48    1:   24   23:  114
           3       1:   48    1:   48  115:  137
           4       1:   48    1:   24  138:  180
           5       1:   48   25:   48   23:  114
           6       1:   48    1:   48    1:   22
New grid distribution:   3
           1       1:   48    1:   48    1:   30
           2       1:   48    1:   48   93:  122
           3       1:   48   25:   48  123:  180
           4       1:   48    1:   24  123:  180
           5       1:   48   24:   48   31:   92
           6       1:   48    1:   23   31:   92
Setting up quadratic distribution...
ExtMesh (bp) on 0 =   136 x   112 x   131 =     1995392
PhiOnMesh: Number of (b)points on node 0 =                49536
PhiOnMesh: nlist on node 0 =              4209669

ts-voltage: Ramp  0.125 eV to -0.125 eV placed in cell
ts-Vha: -0.78510695E+00 eV

transiesta: created H and S sparsity pattern:
  <sparsity:(M of: G ((UC of: T T T sparsity for geom step 0)))
    nrows_g=1008 nrows=1008 sparsity=.2331 nnzs=236872, refcount: 1>

transiesta: created local update sparsity pattern:
  <sparsity:(M of: T T T sparsity for geom step 0)
    nrows_g=1008 nrows=168 sparsity=.0288 nnzs=29304, refcount: 1>

transiesta: created update sparsity pattern:
  <sparsity:G ((UC of: (M of: T T T sparsity for geom step 0)))
    nrows_g=1008 nrows=1008 sparsity=.0688 nnzs=69916, refcount: 1>

transiesta: Determining an optimal tri-matrix using: atom+Left
transiesta: Established a near-optimal partition for the tri-diagonal matrix.
BTD partitions (5): 
  [ 81, 324, 108, 252, 243 ]
transiesta: Matrix elements in % of full matrix:  53.65115 %

transiesta: mem of electrodes (static):                     9.61MB
transiesta: mem of global update arrays (static):          11.50MB
transiesta: mem of master node sparse arrays:               1.34MB
transiesta: mem of tri-diagonal matrices:                  16.64MB
transiesta: Total memory usage:                            39.66MB

transiesta: Charge distribution, target =   1232.00000
Total charge                  [Q]  :   1232.00761
Device                        [D]  :    436.15772
Left                          [E1] :    392.16177
Left                 / device [C1] :      3.85824
Right                         [E2] :    392.16179
Right                / device [C2] :      3.85823
Other                         [O]  :      3.80987
Excess charge                [dQ]  :  7.60913E-03

ts-err-D: ij(  352,   352), M = 0.67286   , ew = -.71169E-3, em = 0.71963E-3. avg_em = 0.35052E-06
ts-err-E: ij(  456, 21642), M = 0.13316E-1, ew = 0.10440E-3, em = -.10496E-3. avg_em = -.39015E-07
ts-w-q:               qP1       qP2
ts-w-q:           218.625   217.580
ts-q:         D        E1        C1        E2        C2        dQ
ts-q:   436.204   392.162     3.858   392.162     3.858 0.543E-01
ts-Vha: -0.53861834E+00 eV

siesta: Program's energy decomposition (eV):
siesta: Ebs     =     -8718.674482
siesta: Eions   =    106428.788183
siesta: Ena     =       385.361141
siesta: Ekin    =     73179.695585
siesta: Enl     =    -47366.317953
siesta: Eso     =         0.000000
siesta: Edftu   =         0.000000
siesta: DEna    =       105.481113
siesta: DUscf   =        42.660033
siesta: DUext   =         0.000000
siesta: Exc     =    -80447.636391
siesta: eta*DQ  =         0.000000
siesta: Emadel  =         0.000000
siesta: Emeta   =         0.000000
siesta: Emolmec =         0.000000
siesta: Ekinion =         0.000000
siesta: Eharris =   -160527.164522
siesta: Etot    =   -160529.544655
siesta: FreeEng =   -160529.544655
ts: E-dN      =         0.130652
ts: Band Stru =     -2922.026548
ts: Kinetic   =     26129.229065
ts: Ion-elec  =   -511653.176255
ts: Eharris   =   -177179.426944
ts: Etot      =   -177181.807077
ts: FreeEng   =   -177181.807077

        iscf     Eharris(eV)        E_KS(eV)     FreeEng(eV)     dDmax    Ef(eV) dHmax(eV)
ts-scf:    1  -177179.426944  -177181.807077  -177181.807077  0.020614 -2.510494  3.418991
timer: Routine,Calls,Time,% = TS             1      21.811  13.01
ts-err-D: ij(  447,   447), M =  1.8250   , ew = -.10753E-1, em = 0.10890E-1. avg_em = 0.44551E-05
ts-err-E: ij(  447,   447), M = -6.6500   , ew = 0.13265E-2, em = -.13435E-2. avg_em = -.54398E-06
ts-w-q:               qP1       qP2
ts-w-q:           218.423   217.927
ts-q:         D        E1        C1        E2        C2        dQ
ts-q:   436.350   392.162     3.858   392.162     3.858 0.200E+00
ts-Vha: -0.18420861E+01 eV
ts-scf:    2  -177169.021804  -177179.982689  -177179.982689  0.041725 -2.510494  7.030334
ts-err-D: ij(  447,   447), M =  1.8271   , ew = -.35331E-2, em = 0.35422E-2. avg_em = 0.15179E-05
ts-err-E: ij(  456, 21642), M = 0.15569E-1, ew = 0.55486E-3, em = -.56930E-3. avg_em = -.22978E-06
ts-w-q:               qP1       qP2
ts-w-q:           219.393   216.537
ts-q:         D        E1        C1        E2        C2        dQ
ts-q:   435.930   392.162     3.858   392.162     3.858 -.220E+00
ts-Vha: -0.38881253E+00 eV
ts-scf:    3  -177180.528728  -177181.805420  -177181.805420  0.032885 -2.510494  0.884868
ts-err-D: ij(  447,   447), M =  1.8275   , ew = -.26575E-2, em = 0.26633E-2. avg_em = 0.11570E-05
ts-err-E: ij(  456, 21642), M = 0.15156E-1, ew = 0.42997E-3, em = -.43909E-3. avg_em = -.17737E-06
ts-w-q:               qP1       qP2
ts-w-q:           219.276   216.821
ts-q:         D        E1        C1        E2        C2        dQ
ts-q:   436.097   392.162     3.858   392.162     3.858 -.529E-01
ts-Vha: -0.69037020E+00 eV
ts-scf:    4  -177182.967122  -177182.479536  -177182.479536  0.004671 -2.510494  0.253521
ts-err-D: ij(  447,   447), M =  1.8275   , ew = -.22255E-2, em = 0.22296E-2. avg_em = 0.99143E-06
ts-err-E: ij(  456, 21642), M = 0.14934E-1, ew = 0.37242E-3, em = -.37796E-3. avg_em = -.15144E-06
ts-w-q:               qP1       qP2
ts-w-q:           219.223   216.984
ts-q:         D        E1        C1        E2        C2        dQ
ts-q:   436.207   392.162     3.858   392.162     3.858 0.565E-01
ts-Vha: -0.86461977E+00 eV
ts-scf:    5  -177183.199901  -177182.905559  -177182.905559  0.003007 -2.510494  0.185589
ts-err-D: ij(  447,   447), M =  1.8275   , ew = -.25633E-2, em = 0.25658E-2. avg_em = 0.11231E-05
ts-err-E: ij(  456, 21642), M = 0.15018E-1, ew = 0.42795E-3, em = -.43094E-3. avg_em = -.17346E-06
ts-w-q:               qP1       qP2
ts-w-q:           219.298   216.867
ts-q:         D        E1        C1        E2        C2        dQ
ts-q:   436.166   392.162     3.858   392.162     3.858 0.156E-01
ts-Vha: -0.79406296E+00 eV
ts-scf:    6  -177182.623221  -177182.736365  -177182.736365  0.000985 -2.510494  0.044790
ts-err-D: ij(  447,   447), M =  1.8274   , ew = -.26165E-2, em = 0.26190E-2. avg_em = 0.11433E-05
ts-err-E: ij(  456, 21642), M = 0.15048E-1, ew = 0.43546E-3, em = -.43853E-3. avg_em = -.17664E-06
ts-w-q:               qP1       qP2
ts-w-q:           219.306   216.850
ts-q:         D        E1        C1        E2        C2        dQ
ts-q:   436.156   392.162     3.858   392.162     3.858 0.557E-02
ts-Vha: -0.77868665E+00 eV
ts-scf:    7  -177182.665512  -177182.695414  -177182.695414  0.001425 -2.510494  0.016016
ts-err-D: ij(  447,   447), M =  1.8274   , ew = -.26049E-2, em = 0.26074E-2. avg_em = 0.11388E-05
ts-err-E: ij(  456, 21642), M = 0.15041E-1, ew = 0.43389E-3, em = -.43691E-3. avg_em = -.17595E-06
ts-w-q:               qP1       qP2
ts-w-q:           219.303   216.854
ts-q:         D        E1        C1        E2        C2        dQ
ts-q:   436.157   392.162     3.858   392.162     3.858 0.701E-02
ts-Vha: -0.78103775E+00 eV
ts-scf:    8  -177182.703425  -177182.700514  -177182.700514  0.000667 -2.510494  0.017382
ts-err-D: ij(  447,   447), M =  1.8274   , ew = -.26104E-2, em = 0.26129E-2. avg_em = 0.11409E-05
ts-err-E: ij(  456, 21642), M = 0.15044E-1, ew = 0.43465E-3, em = -.43769E-3. avg_em = -.17627E-06
ts-w-q:               qP1       qP2
ts-w-q:           219.303   216.853
ts-q:         D        E1        C1        E2        C2        dQ
ts-q:   436.156   392.162     3.858   392.162     3.858 0.617E-02
ts-Vha: -0.78051828E+00 eV
ts-scf:    9  -177182.693657  -177182.696621  -177182.696621  0.000307 -2.510494  0.015773
ts-err-D: ij(  447,   447), M =  1.8274   , ew = -.26178E-2, em = 0.26203E-2. avg_em = 0.11437E-05
ts-err-E: ij(  456, 21642), M = 0.15047E-1, ew = 0.43569E-3, em = -.43875E-3. avg_em = -.17672E-06
ts-w-q:               qP1       qP2
ts-w-q:           219.304   216.852
ts-q:         D        E1        C1        E2        C2        dQ
ts-q:   436.156   392.162     3.858   392.162     3.858 0.583E-02
ts-Vha: -0.78033229E+00 eV
ts-scf:   10  -177182.693009  -177182.694500  -177182.694500  0.000778 -2.510494  0.009274
ts-err-D: ij(  447,   447), M =  1.8274   , ew = -.26161E-2, em = 0.26186E-2. avg_em = 0.11431E-05
ts-err-E: ij(  456, 21642), M = 0.15046E-1, ew = 0.43551E-3, em = -.43855E-3. avg_em = -.17663E-06
ts-w-q:               qP1       qP2
ts-w-q:           219.304   216.854
ts-q:         D        E1        C1        E2        C2        dQ
ts-q:   436.158   392.162     3.858   392.162     3.858 0.792E-02
ts-Vha: -0.78337722E+00 eV
ts-scf:   11  -177182.707508  -177182.702000  -177182.702000  0.000793 -2.510494  0.002855
ts-err-D: ij(  447,   447), M =  1.8274   , ew = -.26177E-2, em = 0.26202E-2. avg_em = 0.11437E-05
ts-err-E: ij(  456, 21642), M = 0.15047E-1, ew = 0.43573E-3, em = -.43878E-3. avg_em = -.17673E-06
ts-w-q:               qP1       qP2
ts-w-q:           219.304   216.854
ts-q:         D        E1        C1        E2        C2        dQ
ts-q:   436.158   392.162     3.858   392.162     3.858 0.754E-02
ts-Vha: -0.78271439E+00 eV
ts-scf:   12  -177182.699257  -177182.700461  -177182.700461  0.000062 -2.510494  0.003649
ts-err-D: ij(  447,   447), M =  1.8274   , ew = -.26197E-2, em = 0.26222E-2. avg_em = 0.11446E-05
ts-err-E: ij(  456, 21642), M = 0.15048E-1, ew = 0.43602E-3, em = -.43907E-3. avg_em = -.17686E-06
ts-w-q:               qP1       qP2
ts-w-q:           219.304   216.854
ts-q:         D        E1        C1        E2        C2        dQ
ts-q:   436.158   392.162     3.858   392.162     3.858 0.769E-02
ts-Vha: -0.78295803E+00 eV
ts-scf:   13  -177182.700804  -177182.700738  -177182.700738  0.000313 -2.510494  0.004214
ts-err-D: ij(  447,   447), M =  1.8274   , ew = -.26210E-2, em = 0.26236E-2. avg_em = 0.11451E-05
ts-err-E: ij(  456, 21642), M = 0.15048E-1, ew = 0.43621E-3, em = -.43927E-3. avg_em = -.17694E-06
ts-w-q:               qP1       qP2
ts-w-q:           219.303   216.854
ts-q:         D        E1        C1        E2        C2        dQ
ts-q:   436.158   392.162     3.858   392.162     3.858 0.753E-02
ts-Vha: -0.78269974E+00 eV
ts-scf:   14  -177182.699490  -177182.700062  -177182.700062  0.000057 -2.510494  0.003470
ts-err-D: ij(  447,   447), M =  1.8275   , ew = -.26226E-2, em = 0.26251E-2. avg_em = 0.11458E-05
ts-err-E: ij(  456, 21642), M = 0.15048E-1, ew = 0.43643E-3, em = -.43950E-3. avg_em = -.17705E-06
ts-w-q:               qP1       qP2
ts-w-q:           219.303   216.855
ts-q:         D        E1        C1        E2        C2        dQ
ts-q:   436.158   392.162     3.858   392.162     3.858 0.767E-02
ts-Vha: -0.78290537E+00 eV
ts-scf:   15  -177182.700773  -177182.700550  -177182.700550  0.000134 -2.510494  0.001030
ts-err-D: ij(  447,   447), M =  1.8275   , ew = -.26232E-2, em = 0.26258E-2. avg_em = 0.11461E-05
ts-err-E: ij(  456, 21642), M = 0.15048E-1, ew = 0.43653E-3, em = -.43960E-3. avg_em = -.17709E-06
ts-w-q:               qP1       qP2
ts-w-q:           219.303   216.855
ts-q:         D        E1        C1        E2        C2        dQ
ts-q:   436.158   392.162     3.858   392.162     3.858 0.767E-02
ts-Vha: -0.78288901E+00 eV
ts-scf:   16  -177182.700478  -177182.700541  -177182.700541  0.000044 -2.510494  0.000498

SCF Convergence by DM+H+dQ criterion
max |DM_out - DM_in|         :     0.0000438428
max |H_out - H_in|      (eV) :     0.0004977472
     Q(TS) - Q(dev)          :     0.0076746071
SCF cycle converged after 16 iterations

Using DM_out to compute the final energy and forces
No. of atoms with KB's overlaping orbs in proc 0. Max # of overlaps:     402     315
ts-Vha: -0.78288901E+00 eV

siesta: E_KS(eV) =          -160530.6134

siesta: E_KS - E_eggbox =   -160530.6134

siesta: Atomic forces (eV/Ang):
----------------------------------------
   Tot   -0.001237   -0.001237    0.208852
----------------------------------------
   Max    1.370300
   Res    0.313628    sqrt( Sum f_i^2 / 3N )
----------------------------------------
   Max    1.370300    constrained

ts: Atomic forces (eV/Ang):
----------------------------------------
   Tot    0.002351    0.002351   -0.015342
----------------------------------------
   Max    1.370300
   Res    0.379593    sqrt( Sum f_i^2 / 3N )
----------------------------------------
   Max    1.370300    constrained

Stress tensor Voigt[x,y,z,yz,xz,xy] (kbar):     -146.94     -146.94     -149.26        0.58        0.58        1.06
(Free)E + p*V (eV/cell)  -160305.4935
Target enthalpy (eV/cell)  -160530.6134

mulliken: Atomic and Orbital Populations:

Species: Au                  
Atom  Qatom  Qorb
               6s      5dxy    5dyz    5dz2    5dxz    5dx2-y2 6Ppy    6Ppz    
               6Ppx    
   1 10.998   0.976   1.932   1.890   1.939   1.890   1.894   0.158   0.161
              0.158
   2 10.999   0.978   1.932   1.890   1.939   1.890   1.894   0.158   0.161
              0.158
   3 10.999   0.978   1.931   1.889   1.939   1.890   1.894   0.158   0.162
              0.158
   4 10.999   0.978   1.932   1.890   1.939   1.890   1.894   0.158   0.161
              0.158
   5 10.999   0.977   1.932   1.889   1.939   1.889   1.894   0.158   0.162
              0.158
   6 10.999   0.977   1.932   1.890   1.938   1.891   1.894   0.158   0.161
              0.158
   7 10.999   0.978   1.931   1.890   1.939   1.889   1.894   0.158   0.162
              0.158
   8 10.999   0.977   1.932   1.891   1.938   1.890   1.894   0.158   0.161
              0.158
   9 10.999   0.976   1.932   1.890   1.938   1.890   1.894   0.159   0.162
              0.159
  10 11.004   0.989   1.934   1.886   1.939   1.886   1.894   0.159   0.159
              0.159
  11 11.001   0.984   1.935   1.887   1.939   1.886   1.894   0.159   0.160
              0.158
  12 11.003   0.986   1.935   1.886   1.939   1.886   1.894   0.159   0.161
              0.158
  13 11.001   0.984   1.935   1.886   1.939   1.887   1.894   0.158   0.160
              0.159
  14 11.001   0.985   1.934   1.888   1.939   1.888   1.894   0.159   0.157
              0.159
  15 11.001   0.983   1.934   1.887   1.939   1.887   1.894   0.159   0.160
              0.159
  16 11.003   0.986   1.935   1.886   1.939   1.886   1.894   0.158   0.161
              0.159
  17 11.001   0.983   1.934   1.887   1.939   1.887   1.894   0.159   0.160
              0.159
  18 11.004   0.987   1.934   1.886   1.939   1.886   1.894   0.158   0.161
              0.158
  19 10.997   0.973   1.932   1.890   1.938   1.890   1.894   0.159   0.164
              0.159
  20 11.000   0.981   1.931   1.889   1.939   1.890   1.893   0.158   0.160
              0.158
  21 11.001   0.982   1.931   1.888   1.939   1.890   1.893   0.158   0.160
              0.159
  22 11.000   0.981   1.931   1.890   1.939   1.889   1.893   0.158   0.160
              0.158
  23 11.000   0.981   1.932   1.889   1.940   1.889   1.894   0.159   0.159
              0.159
  24 11.000   0.981   1.931   1.889   1.940   1.890   1.894   0.158   0.158
              0.159
  25 11.001   0.982   1.931   1.890   1.939   1.888   1.893   0.159   0.160
              0.158
  26 11.000   0.981   1.931   1.890   1.940   1.889   1.894   0.159   0.158
              0.158
  27 10.999   0.979   1.932   1.889   1.939   1.889   1.894   0.159   0.159
              0.159
  28 10.998   0.977   1.935   1.891   1.938   1.891   1.889   0.159   0.160
              0.159
  29 10.999   0.975   1.934   1.890   1.937   1.891   1.889   0.159   0.164
              0.159
  30 10.998   0.977   1.935   1.890   1.938   1.891   1.889   0.159   0.161
              0.159
  31 10.999   0.975   1.934   1.891   1.937   1.890   1.889   0.159   0.164
              0.159
  32 11.001   0.975   1.933   1.890   1.936   1.890   1.890   0.161   0.165
              0.161
  33 10.999   0.975   1.934   1.891   1.937   1.890   1.889   0.159   0.163
              0.160
  34 10.998   0.977   1.935   1.891   1.938   1.890   1.889   0.159   0.161
              0.159
  35 10.999   0.975   1.934   1.890   1.937   1.891   1.889   0.160   0.163
              0.159
  36 10.998   0.975   1.934   1.890   1.937   1.890   1.889   0.159   0.162
              0.159
  37 10.960   0.950   1.937   1.902   1.938   1.902   1.878   0.152   0.148
              0.152
  38 10.972   0.957   1.937   1.902   1.927   1.900   1.881   0.153   0.162
              0.153
  39 10.972   0.961   1.937   1.902   1.926   1.901   1.880   0.153   0.159
              0.152
  40 10.972   0.957   1.937   1.900   1.927   1.902   1.881   0.153   0.162
              0.153
  41 10.973   0.956   1.938   1.901   1.927   1.901   1.878   0.153   0.165
              0.153
  42 10.975   0.959   1.938   1.900   1.926   1.902   1.878   0.153   0.165
              0.153
  43 10.972   0.961   1.937   1.901   1.926   1.902   1.880   0.152   0.159
              0.153
  44 10.975   0.959   1.938   1.902   1.926   1.900   1.878   0.153   0.165
              0.153
  45 10.978   0.965   1.937   1.900   1.926   1.900   1.878   0.154   0.164
              0.154
  46 11.014   1.008   1.950   1.914   1.934   1.914   1.868   0.142   0.141
              0.142
  47 11.028   1.040   1.949   1.921   1.948   1.927   1.861   0.136   0.111
              0.137
  48 11.014   1.015   1.949   1.912   1.938   1.916   1.868   0.144   0.132
              0.141
  49 11.028   1.040   1.949   1.927   1.948   1.921   1.861   0.137   0.111
              0.136
  50 11.034   1.048   1.948   1.922   1.948   1.922   1.861   0.137   0.110
              0.137
  51 11.026   1.041   1.949   1.926   1.948   1.921   1.861   0.135   0.110
              0.135
  52 11.014   1.015   1.949   1.916   1.938   1.912   1.868   0.141   0.132
              0.144
  53 11.026   1.041   1.949   1.921   1.948   1.926   1.861   0.135   0.110
              0.135
  54 11.031   1.032   1.948   1.911   1.936   1.911   1.869   0.144   0.137
              0.144
  55 11.044   1.092   1.927   1.900   1.962   1.900   1.976   0.086   0.117
              0.086
  56 11.005   1.070   1.976   1.939   1.965   1.939   1.986   0.026   0.078
              0.026
  57 11.016   1.090   1.976   1.936   1.965   1.936   1.986   0.025   0.076
              0.025
  58 11.042   1.091   1.926   1.899   1.962   1.899   1.976   0.084   0.123
              0.084
  59 11.013   1.003   1.949   1.914   1.936   1.914   1.867   0.144   0.142
              0.144
  60 11.013   1.010   1.948   1.911   1.938   1.916   1.867   0.146   0.132
              0.143
  61 11.026   1.036   1.948   1.921   1.947   1.928   1.860   0.137   0.110
              0.138
  62 11.013   1.010   1.948   1.916   1.938   1.911   1.867   0.143   0.132
              0.146
  63 11.031   1.029   1.947   1.911   1.936   1.911   1.868   0.146   0.136
              0.146
  64 11.023   1.036   1.948   1.921   1.947   1.927   1.860   0.137   0.108
              0.138
  65 11.026   1.036   1.948   1.928   1.947   1.921   1.860   0.138   0.110
              0.137
  66 11.023   1.036   1.948   1.927   1.947   1.921   1.860   0.138   0.108
              0.137
  67 11.031   1.043   1.948   1.922   1.948   1.922   1.861   0.139   0.108
              0.139
  68 10.959   0.950   1.937   1.901   1.941   1.901   1.877   0.152   0.148
              0.152
  69 10.971   0.961   1.937   1.901   1.927   1.900   1.881   0.152   0.159
              0.152
  70 10.972   0.960   1.937   1.901   1.927   1.899   1.881   0.153   0.161
              0.153
  71 10.971   0.961   1.937   1.900   1.927   1.901   1.881   0.152   0.159
              0.152
  72 10.978   0.966   1.937   1.900   1.926   1.900   1.878   0.153   0.164
              0.153
  73 10.975   0.961   1.938   1.901   1.926   1.900   1.878   0.153   0.164
              0.153
  74 10.972   0.960   1.937   1.899   1.927   1.901   1.881   0.153   0.161
              0.153
  75 10.975   0.961   1.938   1.900   1.926   1.901   1.878   0.153   0.164
              0.153
  76 10.973   0.959   1.938   1.901   1.926   1.901   1.878   0.153   0.164
              0.153
  77 10.998   0.977   1.935   1.891   1.938   1.891   1.889   0.159   0.160
              0.159
  78 10.998   0.977   1.935   1.890   1.938   1.891   1.889   0.159   0.161
              0.159
  79 10.999   0.975   1.934   1.890   1.937   1.891   1.889   0.159   0.164
              0.159
  80 10.998   0.977   1.935   1.891   1.938   1.890   1.889   0.159   0.161
              0.159
  81 10.998   0.975   1.934   1.890   1.937   1.890   1.889   0.159   0.162
              0.159
  82 10.999   0.975   1.934   1.890   1.937   1.891   1.889   0.160   0.163
              0.159
  83 10.999   0.975   1.934   1.891   1.937   1.890   1.889   0.159   0.164
              0.159
  84 10.999   0.975   1.934   1.891   1.937   1.890   1.889   0.159   0.163
              0.160
  85 11.001   0.975   1.933   1.890   1.936   1.890   1.890   0.161   0.165
              0.161
  86 10.997   0.973   1.932   1.890   1.938   1.890   1.894   0.159   0.164
              0.159
  87 11.001   0.982   1.931   1.888   1.939   1.890   1.893   0.158   0.160
              0.159
  88 11.000   0.981   1.931   1.889   1.939   1.890   1.893   0.158   0.160
              0.158
  89 11.001   0.982   1.931   1.890   1.939   1.888   1.893   0.159   0.160
              0.158
  90 10.999   0.979   1.932   1.889   1.939   1.889   1.894   0.159   0.159
              0.159
  91 11.000   0.981   1.931   1.890   1.940   1.889   1.894   0.159   0.158
              0.158
  92 11.000   0.981   1.931   1.890   1.939   1.889   1.893   0.158   0.160
              0.158
  93 11.000   0.981   1.931   1.889   1.940   1.890   1.894   0.158   0.158
              0.159
  94 11.000   0.981   1.932   1.889   1.940   1.889   1.894   0.159   0.159
              0.159
  95 11.004   0.989   1.934   1.886   1.939   1.886   1.894   0.159   0.159
              0.159
  96 11.003   0.986   1.935   1.886   1.939   1.886   1.894   0.159   0.161
              0.158
  97 11.001   0.984   1.935   1.887   1.939   1.886   1.894   0.159   0.160
              0.158
  98 11.003   0.986   1.935   1.886   1.939   1.886   1.894   0.158   0.161
              0.159
  99 11.004   0.987   1.934   1.886   1.939   1.886   1.894   0.158   0.161
              0.158
 100 11.001   0.983   1.934   1.887   1.939   1.887   1.894   0.159   0.160
              0.159
 101 11.001   0.984   1.935   1.886   1.939   1.887   1.894   0.158   0.160
              0.159
 102 11.001   0.983   1.934   1.887   1.939   1.887   1.894   0.159   0.160
              0.159
 103 11.001   0.985   1.934   1.888   1.939   1.888   1.894   0.159   0.157
              0.159
 104 10.998   0.976   1.932   1.890   1.939   1.890   1.894   0.158   0.161
              0.158
 105 10.999   0.978   1.931   1.889   1.939   1.890   1.894   0.158   0.162
              0.158
 106 10.999   0.978   1.932   1.890   1.939   1.890   1.894   0.158   0.161
              0.158
 107 10.999   0.978   1.931   1.890   1.939   1.889   1.894   0.158   0.162
              0.158
 108 10.999   0.976   1.932   1.890   1.938   1.890   1.894   0.159   0.162
              0.159
 109 10.999   0.977   1.932   1.891   1.938   1.890   1.894   0.158   0.161
              0.158
 110 10.999   0.978   1.932   1.890   1.939   1.890   1.894   0.158   0.161
              0.158
 111 10.999   0.977   1.932   1.890   1.938   1.891   1.894   0.158   0.161
              0.158
 112 10.999   0.977   1.932   1.889   1.939   1.889   1.894   0.158   0.162
              0.158

mulliken: Qtot =     1232.008

transiesta: Charge distribution, target =   1232.00000
Total charge                  [Q]  :   1232.00767
Device                        [D]  :    436.15778
Left                          [E1] :    392.16177
Left                 / device [C1] :      3.85824
Right                         [E2] :    392.16179
Right                / device [C2] :      3.85823
Other                         [O]  :      3.80987
Excess charge                [dQ]  :  7.67461E-03


coxmol: Writing XMOL coordinates into file ts_au_100_1x1_0.25V.xyz                                             

siesta: Program's energy decomposition (eV):
siesta: Ebs     =     -8381.446934
siesta: Eions   =    106428.788183
siesta: Ena     =       385.361141
siesta: Ekin    =     73179.015263
siesta: Enl     =    -47366.238187
siesta: Eso     =         0.000000
siesta: Edftu   =         0.000000
siesta: DEna    =       105.651089
siesta: DUscf   =        41.442324
siesta: DUext   =         0.000000
siesta: Exc     =    -80447.056872
siesta: eta*DQ  =         0.000000
siesta: Emadel  =         0.000000
siesta: Emeta   =         0.000000
siesta: Emolmec =         0.000000
siesta: Ekinion =         0.000000
siesta: Eharris =   -160530.613362
siesta: Etot    =   -160530.613426
siesta: FreeEng =   -160530.613426
ts: E-dN      =         0.305958
ts: Band Stru =     -2846.802877
ts: Kinetic   =     26128.548742
ts: Ion-elec  =   -511992.349165
ts: Eharris   =   -177182.700478
ts: Etot      =   -177182.700541
ts: FreeEng   =   -177182.700541

siesta: Final energy (eV):
siesta:  Band Struct. =   -8381.446934
siesta:       Kinetic =   73179.015263
siesta:       Hartree =  243569.650984
siesta:       Edftu   =       0.000000
siesta:       Eso     =       0.000000
siesta:    Ext. field =       0.000000
siesta:   Exch.-corr. =  -80447.056872
siesta:  Ion-electron = -542390.422612
siesta:       Ion-ion =  145558.199811
siesta:       Ekinion =       0.000000
siesta:         Total = -160530.613426
ts:         E-dN  =       0.305958
ts:     Band Stru =   -2846.802877
ts:       Kinetic =   26128.548742
ts:      Ion-elec = -511992.349165
ts:         Total = -177182.700541
siesta:         Fermi =      -2.510494

siesta: Atomic forces (eV/Ang):
siesta:      1   -0.006189   -0.006189   -0.002368
siesta:      2    0.005882   -0.000403   -0.011385
siesta:      3   -0.000220    0.001165   -0.011023
siesta:      4   -0.000403    0.005882   -0.011385
siesta:      5    0.000555    0.000555    0.012501
siesta:      6   -0.000813   -0.011506   -0.005383
siesta:      7    0.001165   -0.000220   -0.011023
siesta:      8   -0.011506   -0.000813   -0.005383
siesta:      9    0.010874    0.010874    0.009353
siesta:     10    0.001735    0.001735    0.035022
siesta:     11   -0.004576   -0.006050    0.051544
siesta:     12    0.003067   -0.002749    0.038785
siesta:     13   -0.006050   -0.004576    0.051544
siesta:     14   -0.005098   -0.005098    0.038823
siesta:     15    0.010975   -0.003257    0.059518
siesta:     16   -0.002749    0.003067    0.038785
siesta:     17   -0.003257    0.010975    0.059518
siesta:     18    0.005859    0.005859    0.049536
siesta:     19   -0.010780   -0.010780   -0.064906
siesta:     20    0.011078   -0.000270   -0.076390
siesta:     21    0.001476    0.003977   -0.087759
siesta:     22   -0.000270    0.011078   -0.076390
siesta:     23    0.003596    0.003596   -0.099075
siesta:     24   -0.003728   -0.007882   -0.086702
siesta:     25    0.003977    0.001476   -0.087759
siesta:     26   -0.007882   -0.003728   -0.086702
siesta:     27    0.003698    0.003698   -0.091418
siesta:     28    0.008028    0.008028    0.030404
siesta:     29   -0.002967   -0.001168   -0.014187
siesta:     30   -0.006503   -0.000165    0.017780
siesta:     31   -0.001168   -0.002967   -0.014187
siesta:     32   -0.009054   -0.009054    0.046071
siesta:     33    0.009809   -0.001682   -0.008939
siesta:     34   -0.000165   -0.006503    0.017780
siesta:     35   -0.001682    0.009809   -0.008939
siesta:     36   -0.001145   -0.001145    0.033186
siesta:     37   -0.006702   -0.006702   -0.327757
siesta:     38    0.016876   -0.004325   -0.039320
siesta:     39   -0.005361   -0.007353   -0.042080
siesta:     40   -0.004325    0.016876   -0.039320
siesta:     41   -0.061057   -0.061057    0.084579
siesta:     42    0.069279   -0.045614    0.067464
siesta:     43   -0.007353   -0.005361   -0.042080
siesta:     44   -0.045614    0.069279    0.067464
siesta:     45    0.058388    0.058388    0.043928
siesta:     46    0.311700    0.311700    1.333178
siesta:     47   -0.019284    0.022362    1.187151
siesta:     48   -0.277254    0.241592    1.261348
siesta:     49    0.022362   -0.019284    1.187151
siesta:     50    0.000335    0.000335    1.201349
siesta:     51   -0.019835   -0.009444    1.164956
siesta:     52    0.241592   -0.277254    1.261348
siesta:     53   -0.009444   -0.019835    1.164956
siesta:     54   -0.185501   -0.185501    1.370300
siesta:     55    0.332502    0.332502    0.440312
siesta:     56   -0.899888   -0.899888   -0.012711
siesta:     57    0.901889    0.901889   -0.001734
siesta:     58   -0.375788   -0.375788   -0.448339
siesta:     59   -0.280681   -0.280681   -1.338086
siesta:     60    0.257420   -0.218730   -1.253866
siesta:     61    0.012493   -0.016567   -1.174897
siesta:     62   -0.218730    0.257420   -1.253866
siesta:     63    0.170967    0.170967   -1.359862
siesta:     64    0.006243    0.016634   -1.147424
siesta:     65   -0.016567    0.012493   -1.174897
siesta:     66    0.016634    0.006243   -1.147424
siesta:     67   -0.002564   -0.002564   -1.192815
siesta:     68   -0.000172   -0.000172    0.298037
siesta:     69    0.005428    0.013468    0.028183
siesta:     70    0.003864    0.012614    0.041127
siesta:     71    0.013468    0.005428    0.028183
siesta:     72   -0.066654   -0.066654   -0.058632
siesta:     73    0.057849   -0.071935   -0.076637
siesta:     74    0.012614    0.003864    0.041127
siesta:     75   -0.071935    0.057849   -0.076637
siesta:     76    0.065157    0.065157   -0.079102
siesta:     77   -0.008178   -0.008178   -0.030851
siesta:     78    0.005441   -0.000213   -0.017841
siesta:     79    0.003097    0.001126    0.015104
siesta:     80   -0.000213    0.005441   -0.017841
siesta:     81    0.000256    0.000256   -0.032133
siesta:     82    0.001799   -0.010951    0.009636
siesta:     83    0.001126    0.003097    0.015104
siesta:     84   -0.010951    0.001799    0.009636
siesta:     85    0.008843    0.008843   -0.047367
siesta:     86    0.011385    0.011385    0.067721
siesta:     87   -0.001130   -0.004146    0.091958
siesta:     88   -0.012023    0.000394    0.080392
siesta:     89   -0.004146   -0.001130    0.091958
siesta:     90   -0.003877   -0.003877    0.095861
siesta:     91    0.008253    0.003905    0.091019
siesta:     92    0.000394   -0.012023    0.080392
siesta:     93    0.003905    0.008253    0.091019
siesta:     94   -0.003892   -0.003892    0.103341
siesta:     95   -0.001924   -0.001924   -0.032634
siesta:     96   -0.003109    0.003117   -0.036771
siesta:     97    0.004770    0.006221   -0.049544
siesta:     98    0.003117   -0.003109   -0.036771
siesta:     99   -0.006219   -0.006219   -0.047715
siesta:    100    0.003261   -0.011449   -0.058047
siesta:    101    0.006221    0.004770   -0.049544
siesta:    102   -0.011449    0.003261   -0.058047
siesta:    103    0.005404    0.005404   -0.036318
siesta:    104    0.006310    0.006310    0.021173
siesta:    105    0.000530   -0.001419    0.030170
siesta:    106   -0.006278    0.000661    0.030436
siesta:    107   -0.001419    0.000530    0.030170
siesta:    108   -0.010935   -0.010935    0.008115
siesta:    109    0.011818    0.000620    0.023957
siesta:    110    0.000661   -0.006278    0.030436
siesta:    111    0.000620    0.011818    0.023957
siesta:    112   -0.000622   -0.000622    0.005215
siesta: ----------------------------------------
siesta:    Tot   -0.001237   -0.001237    0.208852

ts: Atomic forces (eV/Ang):
ts:      1    0.000000    0.000000    0.000000
ts:      2    0.000000    0.000000    0.000000
ts:      3    0.000000    0.000000    0.000000
ts:      4    0.000000    0.000000    0.000000
ts:      5    0.000000    0.000000    0.000000
ts:      6    0.000000    0.000000    0.000000
ts:      7    0.000000    0.000000    0.000000
ts:      8    0.000000    0.000000    0.000000
ts:      9    0.000000    0.000000    0.000000
ts:     10    0.000000    0.000000    0.000000
ts:     11    0.000000    0.000000    0.000000
ts:     12    0.000000    0.000000    0.000000
ts:     13    0.000000    0.000000    0.000000
ts:     14    0.000000    0.000000    0.000000
ts:     15    0.000000    0.000000    0.000000
ts:     16    0.000000    0.000000    0.000000
ts:     17    0.000000    0.000000    0.000000
ts:     18    0.000000    0.000000    0.000000
ts:     19    0.000000    0.000000    0.000000
ts:     20    0.000000    0.000000    0.000000
ts:     21    0.000000    0.000000    0.000000
ts:     22    0.000000    0.000000    0.000000
ts:     23    0.000000    0.000000    0.000000
ts:     24    0.000000    0.000000    0.000000
ts:     25    0.000000    0.000000    0.000000
ts:     26    0.000000    0.000000    0.000000
ts:     27    0.000000    0.000000    0.000000
ts:     28    0.000000    0.000000    0.000000
ts:     29    0.000000    0.000000    0.000000
ts:     30    0.000000    0.000000    0.000000
ts:     31    0.000000    0.000000    0.000000
ts:     32    0.000000    0.000000    0.000000
ts:     33    0.000000    0.000000    0.000000
ts:     34    0.000000    0.000000    0.000000
ts:     35    0.000000    0.000000    0.000000
ts:     36    0.000000    0.000000    0.000000
ts:     37   -0.006702   -0.006702   -0.327757
ts:     38    0.016876   -0.004325   -0.039320
ts:     39   -0.005361   -0.007353   -0.042080
ts:     40   -0.004325    0.016876   -0.039320
ts:     41   -0.061057   -0.061057    0.084579
ts:     42    0.069279   -0.045614    0.067464
ts:     43   -0.007353   -0.005361   -0.042080
ts:     44   -0.045614    0.069279    0.067464
ts:     45    0.058388    0.058388    0.043928
ts:     46    0.311700    0.311700    1.333178
ts:     47   -0.019284    0.022362    1.187151
ts:     48   -0.277254    0.241592    1.261348
ts:     49    0.022362   -0.019284    1.187151
ts:     50    0.000335    0.000335    1.201349
ts:     51   -0.019835   -0.009444    1.164956
ts:     52    0.241592   -0.277254    1.261348
ts:     53   -0.009444   -0.019835    1.164956
ts:     54   -0.185501   -0.185501    1.370300
ts:     55    0.332502    0.332502    0.440312
ts:     56   -0.899888   -0.899888   -0.012711
ts:     57    0.901889    0.901889   -0.001734
ts:     58   -0.375788   -0.375788   -0.448339
ts:     59   -0.280681   -0.280681   -1.338086
ts:     60    0.257420   -0.218730   -1.253866
ts:     61    0.012493   -0.016567   -1.174897
ts:     62   -0.218730    0.257420   -1.253866
ts:     63    0.170967    0.170967   -1.359862
ts:     64    0.006243    0.016634   -1.147424
ts:     65   -0.016567    0.012493   -1.174897
ts:     66    0.016634    0.006243   -1.147424
ts:     67   -0.002564   -0.002564   -1.192815
ts:     68   -0.000172   -0.000172    0.298037
ts:     69    0.005428    0.013468    0.028183
ts:     70    0.003864    0.012614    0.041127
ts:     71    0.013468    0.005428    0.028183
ts:     72   -0.066654   -0.066654   -0.058632
ts:     73    0.057849   -0.071935   -0.076637
ts:     74    0.012614    0.003864    0.041127
ts:     75   -0.071935    0.057849   -0.076637
ts:     76    0.065157    0.065157   -0.079102
ts:     77    0.000000    0.000000    0.000000
ts:     78    0.000000    0.000000    0.000000
ts:     79    0.000000    0.000000    0.000000
ts:     80    0.000000    0.000000    0.000000
ts:     81    0.000000    0.000000    0.000000
ts:     82    0.000000    0.000000    0.000000
ts:     83    0.000000    0.000000    0.000000
ts:     84    0.000000    0.000000    0.000000
ts:     85    0.000000    0.000000    0.000000
ts:     86    0.000000    0.000000    0.000000
ts:     87    0.000000    0.000000    0.000000
ts:     88    0.000000    0.000000    0.000000
ts:     89    0.000000    0.000000    0.000000
ts:     90    0.000000    0.000000    0.000000
ts:     91    0.000000    0.000000    0.000000
ts:     92    0.000000    0.000000    0.000000
ts:     93    0.000000    0.000000    0.000000
ts:     94    0.000000    0.000000    0.000000
ts:     95    0.000000    0.000000    0.000000
ts:     96    0.000000    0.000000    0.000000
ts:     97    0.000000    0.000000    0.000000
ts:     98    0.000000    0.000000    0.000000
ts:     99    0.000000    0.000000    0.000000
ts:    100    0.000000    0.000000    0.000000
ts:    101    0.000000    0.000000    0.000000
ts:    102    0.000000    0.000000    0.000000
ts:    103    0.000000    0.000000    0.000000
ts:    104    0.000000    0.000000    0.000000
ts:    105    0.000000    0.000000    0.000000
ts:    106    0.000000    0.000000    0.000000
ts:    107    0.000000    0.000000    0.000000
ts:    108    0.000000    0.000000    0.000000
ts:    109    0.000000    0.000000    0.000000
ts:    110    0.000000    0.000000    0.000000
ts:    111    0.000000    0.000000    0.000000
ts:    112    0.000000    0.000000    0.000000
ts: ----------------------------------------
ts:    Tot    0.002351    0.002351   -0.015342

siesta: Stress tensor (static) (eV/Ang**3):
siesta:    -0.091711    0.000662    0.000363
siesta:     0.000662   -0.091711    0.000363
siesta:     0.000361    0.000361   -0.093162

siesta: Cell volume =       2441.783730 Ang**3

siesta: Pressure (static):
siesta:                Solid            Molecule  Units
siesta:           0.00100412          0.00116667  Ry/Bohr**3
siesta:           0.09219486          0.10711928  eV/Ang**3
siesta:         147.71404425        171.62586151  kBar
(Free)E+ p_basis*V_orbitals  =     -160453.005980
(Free)Eharris+ p_basis*V_orbitals  =     -160453.005916
ts-Vha: -0.78288901E+00 eV

dhscf: Vacuum level (max, mean) =    2.251437    2.123164 eV

cite: Please see "ts_au_100_1x1_0.25V.bib" for an exhaustive BiBTeX file.
cite: Please clearly indicate Siesta version in published work: v4.1.5-1-g384057250
cite: This calculation has made use of the following articles
cite: which are encouraged to be cited in a published work.
        Primary SIESTA paper
          DOI: www.doi.org/10.1088/0953-8984/14/11/302
        Primary TranSiesta paper
          DOI: www.doi.org/10.1103/PhysRevB.65.165401
        TranSiesta N-electrode
          DOI: www.doi.org/10.1016/j.cpc.2016.09.022

>> End of run:   3-NOV-2021  23:10:49
Job completed
