Siesta Version  : v4.1.5-1-g384057250
Architecture    : x86_64-linux-gcc
Compiler version: GNU Fortran (GCC) 11.2.0
Compiler flags  : mpifort -m64 -fPIC -O3 -ftree-vectorize -fexpensive-optimizations -funroll-loops -fprefetch-loop-arrays -fgraphite -fipa-icf -fipa-pure-const -march=native -fschedule-fusion -fselective-scheduling -fstack-arrays -fmax-stack-var-size=10000 -fipa-sra -fipa-cp -fcheck=recursion,array-temps -fno-second-underscore -Wrealloc-lhs -Wrealloc-lhs-all -fallow-argument-mismatch
PP flags        : -DSIESTA__FLOOK -DSIESTA__METIS -DSIESTA__FFTW -DTS_PVT_METIS -DSIESTA__MRRR -DSIESTA__SCALAPACK_RESET -DMPI -DFC_HAVE_FLUSH -DFC_HAVE_ABORT -DCDF -DGRID_DP -DMPI_TIMING -DTRANSIESTA_TIMING -DTBTRANS_TIMING -DSIESTA__MUMPS -DNCDF_PARALLEL -DNCDF -DNCDF_4 -DSCALAPACK_DEBUG -D_DIAG_WORK -DSIESTA__DIAG_2STAGE -DSIESTA__ELPA
Libraries       : libncdf.a libfdict.a  -lzmumps -lmumps_common -lpord -lparmetis -lmetis -lesmumps -lscotch -lscotcherr -L/opt/gnu/11.2.0/elpa/2020.05.001/lib -Wl,-rpath=/opt/gnu/11.2.0/elpa/2020.05.001/lib -lelpa -L/opt/gnu/11.2.0/scalapack-debug/2.1.0/lib -Wl,-rpath=/opt/gnu/11.2.0/scalapack-debug/2.1.0/lib -lscalapack  -L/opt/gnu/11.2.0/openblas/0.3.18/lib -Wl,-rpath=/opt/gnu/11.2.0/openblas/0.3.18/lib -lopenblas -L/home/nicpa/codes/flook/obj -lflookall -ldl -l:libnetcdff.so  -m64 -fPIC -O3 -ftree-vectorize -fexpensive-optimizations -funroll-loops -fprefetch-loop-arrays -fgraphite -fipa-icf -fipa-pure-const -march=native -fschedule-fusion -fselective-scheduling -fstack-arrays -fmax-stack-var-size=10000 -fipa-sra -fipa-cp -fcheck=recursion,array-temps -fno-second-underscore -Wrealloc-lhs -Wrealloc-lhs-all -fallow-argument-mismatch -L/opt/gnu/11.2.0/fftw/3.3.10/lib -Wl,-rpath=/opt/gnu/11.2.0/fftw/3.3.10/lib -lfftw3
PARALLEL version
NetCDF support
NetCDF-4 support
NetCDF-4 MPI-IO support
METIS ordering support
Lua support

* Running on 6 nodes in parallel
>> Start of run:   3-NOV-2021  22:02:19

                           ***********************       
                           *  WELCOME TO SIESTA  *       
                           ***********************       

reinit: Reading from ts_au_111_capacitor_x2.fdf

reinit: -----------------------------------------------------------------------
reinit: System Name: au_111_capacitor
reinit: -----------------------------------------------------------------------
reinit: System Label: ts_au_111_capacitor_x2
reinit: -----------------------------------------------------------------------

initatom: Reading input for the pseudopotentials and atomic orbitals ----------
Species number:   1 Atomic number:   79 Label: Au

Ground state valence configuration:   6s01  5d10
Reading pseudopotential information in formatted form from Au.psf

Pseudopotential generated from a relativistic atomic calculation

Valence configuration for pseudopotential generation:
6s( 1.00) rc: 2.32
6p( 0.00) rc: 2.32
5d(10.00) rc: 2.32
5f( 0.00) rc: 2.32
For Au, standard SIESTA heuristics set lmxkb to 3
 (one more than the basis l, including polarization orbitals).
Use PS.lmax or PS.KBprojectors blocks to override.
Au: nkbl increased for l=1 due to the presence of a polarization orbital

<basis_specs>
===============================================================================
Au                   Z=  79    Mass=  196.97        Charge= 0.17977+309
Lmxo=2 Lmxkb= 3    BasisType=split      Semic=F
L=0  Nsemic=0  Cnfigmx=6
          i=1  nzeta=1  polorb=1  (6s)
            splnorm:   0.15000    
               vcte:    0.0000    
               rinn:    0.0000    
               qcoe:    0.0000    
               qyuk:    0.0000    
               qwid:   0.10000E-01
                rcs:    0.0000    
            lambdas:    1.0000    
L=1  Nsemic=0  Cnfigmx=6
L=2  Nsemic=0  Cnfigmx=5
          i=1  nzeta=1  polorb=0  (5d)
            splnorm:   0.15000    
               vcte:    0.0000    
               rinn:    0.0000    
               qcoe:    0.0000    
               qyuk:    0.0000    
               qwid:   0.10000E-01
                rcs:    0.0000    
            lambdas:    1.0000    
-------------------------------------------------------------------------------
L=0  Nkbl=1  erefs: 0.17977+309
L=1  Nkbl=2  erefs: 0.17977+309 0.17977+309
L=2  Nkbl=1  erefs: 0.17977+309
L=3  Nkbl=1  erefs: 0.17977+309
===============================================================================
</basis_specs>

atom: Called for Au                    (Z =  79)

read_vps: Pseudopotential generation method:
read_vps: ATM3      Troullier-Martins                       
Valence charge for ps generation:   11.00000

xc_check: Exchange-correlation functional:
xc_check: Ceperley-Alder
V l=0 = -2*Zval/r beyond r=  3.7361
V l=1 = -2*Zval/r beyond r=  3.7361
V l=2 = -2*Zval/r beyond r=  3.7361
V l=3 = -2*Zval/r beyond r=  3.7361
All V_l potentials equal beyond r=  2.2946
This should be close to max(r_c) in ps generation
All pots = -2*Zval/r beyond r=  3.7361
Using large-core scheme for Vlocal

atom: Estimated core radius    3.73611

atom: Including non-local core corrections could be a good idea
atom: Maximum radius for 4*pi*r*r*local-pseudopot. charge    4.07775
atom: Maximum radius for r*vlocal+2*Zval:    3.78310
GHOST: No ghost state for L =  0
KBgen: More than one KB projector for l=  1
KBgen: ghost states analysis will be not performed
GHOST: No ghost state for L =  2
GHOST: No ghost state for L =  3

KBgen: Kleinman-Bylander projectors: 
   l= 0   rc=  2.382235   el= -0.445645   Ekb=  4.511922   kbcos=  0.274440
   l= 1   rc=  2.382235   el= -0.065316   Ekb=  2.560647   kbcos=  0.223707
   l= 1   rc=  2.382235   el=  0.001421   Ekb=  2.131832   kbcos=  0.034244
   l= 2   rc=  2.382235   el= -0.526293   Ekb= -5.024070   kbcos= -0.676934
   l= 3   rc=  2.382235   el=  0.003438   Ekb= -2.070042   kbcos= -0.013117

KBgen: Total number of Kleinman-Bylander projectors:   19
atom: -------------------------------------------------------------------------

atom: SANKEY-TYPE ORBITALS:

SPLIT: Orbitals with angular momentum L= 0

SPLIT: Basis orbitals for state 6s

SPLIT: PAO cut-off radius determined from an
SPLIT: energy shift=  0.005000 Ry

   izeta = 1
                 lambda =    1.000000
                     rc =    7.246712
                 energy =   -0.441368
                kinetic =    0.367640
    potential(screened) =   -0.809008
       potential(ionic) =   -8.408267

SPLIT: Orbitals with angular momentum L= 2

SPLIT: Basis orbitals for state 5d

SPLIT: PAO cut-off radius determined from an
SPLIT: energy shift=  0.005000 Ry

   izeta = 1
                 lambda =    1.000000
                     rc =    5.106662
                 energy =   -0.521343
                kinetic =    4.852314
    potential(screened) =   -5.373657
       potential(ionic) =  -16.114240

POLgen: Perturbative polarization orbital with L=  1

POLgen: Polarization orbital for state 6s

   izeta = 1
                     rc =    7.246712
                 energy =   -0.107868
                kinetic =    0.647525
    potential(screened) =   -0.755394
       potential(ionic) =   -7.869443
atom: Total number of Sankey-type orbitals:  9

atm_pop: Valence configuration (for local Pseudopot. screening):
 6s( 1.00)                                                            
 6p( 0.00)                                                            
 5d(10.00)                                                            
Vna: chval, zval:   11.00000  11.00000

Vna:  Cut-off radius for the neutral-atom potential:   7.246712

atom: _________________________________________________________________________

prinput: Basis input ----------------------------------------------------------

PAO.BasisType split     

%block ChemicalSpeciesLabel
    1   79 Au                      # Species index, atomic number, species label
%endblock ChemicalSpeciesLabel

%block PAO.Basis                 # Define Basis set
Au                    2                    # Species label, number of l-shells
 n=6   0   1 P   1                   # n, l, Nzeta, Polarization, NzetaPol
   7.247   
   1.000   
 n=5   2   1                         # n, l, Nzeta 
   5.107   
   1.000   
%endblock PAO.Basis

prinput: ----------------------------------------------------------------------

Dumping basis to NetCDF file Au.ion.nc
coor:   Atomic-coordinates input format  =     Cartesian coordinates
coor:                                          (in units of alat)

siesta: WARNING: XV file not found

siesta: Atomic coordinates (Bohr) and species
siesta:      0.00000   0.00000   0.00000  1        1
siesta:      5.52388   0.00000   0.00000  1        2
siesta:      2.76194   1.59461   4.51023  1        3
siesta:      8.28582   1.59461   4.51023  1        4
siesta:      2.76194  -1.59461   9.02046  1        5
siesta:      8.28582  -1.59461   9.02046  1        6
siesta:      0.00000   0.00000  13.53069  1        7
siesta:      5.52388   0.00000  13.53069  1        8
siesta:      2.76194   1.59461  18.04092  1        9
siesta:      8.28582   1.59461  18.04092  1       10
siesta:      2.76194   1.59461  36.08183  1       11
siesta:      8.28582   1.59461  36.08183  1       12
siesta:      2.76194  -1.59461  40.59206  1       13
siesta:      8.28582  -1.59461  40.59206  1       14
siesta:      0.00000   0.00000  45.10229  1       15
siesta:      5.52388   0.00000  45.10229  1       16
siesta:      2.76194   1.59461  49.61252  1       17
siesta:      8.28582   1.59461  49.61252  1       18
siesta:      2.76194  -1.59461  54.12275  1       19
siesta:      8.28582  -1.59461  54.12275  1       20

siesta: System type = bulk      

initatomlists: Number of atoms, orbitals, and projectors:     20   180   380

coxmol: Writing XMOL coordinates into file ts_au_111_capacitor_x2.xyz                                          

siesta: ******************** Simulation parameters ****************************
siesta:
siesta: The following are some of the parameters of the simulation.
siesta: A complete list of the parameters used, including default values,
siesta: can be found in file out.fdf
siesta:
redata: Spin configuration                          = none
redata: Number of spin components                   = 1
redata: Time-Reversal Symmetry                      = T
redata: Spin spiral                                 = F
redata: Long output                                 =   F
redata: Number of Atomic Species                    =        1
redata: Charge density info will appear in .RHO file
redata: Write Mulliken Pop.                         = Atomic and Orbital charges
redata: Matel table size (NRTAB)                    =     1024
redata: Mesh Cutoff                                 =   350.0000 Ry
redata: Net charge of the system                    =     0.0000 |e|
redata: Min. number of SCF Iter                     =        0
redata: Max. number of SCF Iter                     =      300
redata: SCF convergence failure will abort job
redata: SCF mix quantity                            = Hamiltonian
redata: Mix DM or H after convergence               =   F
redata: Recompute H after scf cycle                 =   F
redata: Mix DM in first SCF step                    =   T
redata: Write Pulay info on disk                    =   F
redata: New DM Occupancy tolerance                  = 0.000000000001
redata: No kicks to SCF
redata: DM Mixing Weight for Kicks                  =     0.5000
redata: Require Harris convergence for SCF          =   F
redata: Harris energy tolerance for SCF             =     0.000100 eV
redata: Require DM convergence for SCF              =   T
redata: DM tolerance for SCF                        =     0.000100
redata: Require EDM convergence for SCF             =   F
redata: EDM tolerance for SCF                       =     0.001000 eV
redata: Require H convergence for SCF               =   T
redata: Hamiltonian tolerance for SCF               =     0.001000 eV
redata: Require (free) Energy convergence for SCF   =   F
redata: (free) Energy tolerance for SCF             =     0.000100 eV
redata: Using Saved Data (generic)                  =   F
redata: Use continuation files for DM               =   T
redata: Neglect nonoverlap interactions             =   F
redata: Method of Calculation                       = Transiesta
redata: Fix the spin of the system                  =   F
redata: Dynamics option                             = Single-point calculation
mix.SCF: Pulay mixing                            = Pulay
mix.SCF:    Variant                              = stable
mix.SCF:    History steps                        = 5
mix.SCF:    Linear mixing weight                 =     0.030000
mix.SCF:    Mixing weight                        =     0.030000
mix.SCF:    SVD condition                        = 0.1000E-07
redata: Save all siesta data in one NC              =   F
redata: ***********************************************************************

%block SCF.Mixers
  Pulay
%endblock SCF.Mixers

%block SCF.Mixer.Pulay
  # Mixing method
  method pulay
  variant stable

  # Mixing options
  weight 0.0300
  weight.linear 0.0300
  history 5
%endblock SCF.Mixer.Pulay

DM_history_depth set to one: no extrapolation allowed by default for geometry relaxation
Size of DM history Fstack: 1
Total number of electrons:   220.000000
Total ionic charge:   220.000000

* ProcessorY, Blocksize:    2  24


* Orbital distribution balance (max,min):    48    24

k-point displ. along   1 input, could be:     0.00    0.50
k-point displ. along   2 input, could be:     0.00    0.50
 Kpoints in:          480 . Kpoints trimmed:          480

siesta: k-grid: Number of k-points =   480
siesta: k-grid: Cutoff (effective) =    11.692 Ang
siesta: k-grid: Supercell and displacements
siesta: k-grid:    4   0   0      0.000
siesta: k-grid:    0   8   0      0.000
siesta: k-grid:    0   0  30      0.500

diag: Algorithm                                     = Expert
diag: Parallel over k                               =   F
diag: Use parallel 2D distribution                  =   T
diag: Parallel block-size                           = 24
diag: Parallel distribution                         =     2 x     3
diag: Used triangular part                          = Lower
diag: Absolute tolerance                            =  0.100E-15
diag: Orthogonalization factor                      =  0.100E-05
diag: Memory factor                                 =  1.0000

superc: Internal auxiliary supercell:     5 x     9 x     3  =     135
superc: Number of atoms, orbitals, and projectors:   2700  24300  51300

k-point displ. along   1 input, could be:     0.00    0.50
k-point displ. along   2 input, could be:     0.00    0.50
 Kpoints in:           20 . Kpoints trimmed:           19

transiesta: k-grid: Number of Green function k-points =    19
transiesta: k-grid: Supercell and displacements
transiesta: k-grid:    4   0   0      0.000
transiesta: k-grid:    0   8   0      0.000
transiesta: k-grid:    0   0   1      0.000

ts: **************************************************************
ts: Voltage                                         =    1.0000 Volts
ts: Save H and S matrices                           =    T
ts: Electronic temperature                          =   99.999269 K
ts: Transport along unit-cell vector                =    A3
ts: Transport along Cartesian vector                =    Z
ts: Fixing Hartree potential at cell boundary       =    -C
ts: Fix Hartree potential fraction                  =    1.0000
ts: Hartree potential offset                        =    0.000000 eV
ts: Solution method                                 =    BTD
ts: BTD pivoting method                             =    atom+Left
ts: BTD creation algorithm                          =    speed
ts: BTD spectral function algorithm                 =    propagation
ts: SCF DM tolerance                                = 0.100E-03
ts: SCF Hamiltonian tolerance                       =    0.001000 eV
ts: SCF converge charge                             =    T
ts: SCF charge tolerance                            = 0.220E+00
ts: Initialize DM by                                =    diagon
ts: Hartree potential ramp across entire cell
ts: Non-equilibrium contour weight method           =    orb-orb
ts: Non-equilibrium contour weight k-method         =    Correlated k-points
ts: Will not correct charge fluctuations
ts: TS.SCF mixing options same as SCF
ts:           >> Electrodes << 
ts: >> Left
ts:   Electrode cell pivoting: E1, E2, E3           = A1, A2, A3
ts:   GF file                                       = ts_au_111_capacitor_x2.TSGFLeft
ts:   Reuse existing GF-file                        =    F
ts:   Electrode TSHS file                           = ./ts_au_elec_111_abc.TSHS
ts:   # atoms used in electrode                     =    3
ts:   Electrode Bloch repeating [E1 x E2 x E3]      = 2 x 1 x 1
ts:   Position in geometry                          = 1 -- 6
ts:   Semi-infinite direction for electrode         = negative wrt. E3
ts:   Chemical shift                                =    0.499999 eV
ts:   Electronic temperature                        =   99.999269 K
ts:   Gamma-only electrode                          =    F
ts:   Bulk H, S in electrode region                 =    T
ts:   Initial DM for electrodes                     = diagon
ts:   Pre-expansion to reduce computation           = H, S, GS
ts:   Cross-terms are not updated
ts:   Manual delta-Ef shift                         =    0.000000 eV
ts:   Hamiltonian E-C bias fractional shift         =    0.0000
ts:   Electrode self-energy imaginary Eta           =  0.1000E-02 eV
ts:   Electrode self-energy accuracy                =  0.1000E-12 eV
ts:   Electrode inter-layer distance (semi-inf)     =    2.3867 Ang
ts: >> Right
ts:   Electrode cell pivoting: E1, E2, E3           = A1, A2, A3
ts:   GF file                                       = ts_au_111_capacitor_x2.TSGFRight
ts:   Reuse existing GF-file                        =    F
ts:   Electrode TSHS file                           = ./ts_au_elec_111_abc.TSHS
ts:   # atoms used in electrode                     =    3
ts:   Electrode Bloch repeating [E1 x E2 x E3]      = 2 x 1 x 1
ts:   Position in geometry                          = 15 -- 20
ts:   Semi-infinite direction for electrode         = positive wrt. E3
ts:   Chemical shift                                =   -0.499999 eV
ts:   Electronic temperature                        =   99.999269 K
ts:   Gamma-only electrode                          =    F
ts:   Bulk H, S in electrode region                 =    T
ts:   Initial DM for electrodes                     = diagon
ts:   Pre-expansion to reduce computation           = H, S, GS
ts:   Cross-terms are not updated
ts:   Manual delta-Ef shift                         =    0.000000 eV
ts:   Hamiltonian E-C bias fractional shift         =    0.0000
ts:   Electrode self-energy imaginary Eta           =  0.1000E-02 eV
ts:   Electrode self-energy accuracy                =  0.1000E-12 eV
ts:   Electrode inter-layer distance (semi-inf)     =    2.3867 Ang
ts:  ----------------- Contour ----------------- 
ts:            >> Residual contour << 
ts: Pole chemical potential                         =    0.5000 eV
ts:    Chemical potential temperature               =   99.9993 K
ts:    Number of poles                              =   47
ts:    Top energy point                             =    2.5448 eV
ts: Pole chemical potential                         =   -0.5000 eV
ts:    Chemical potential temperature               =   99.9993 K
ts:    Number of poles                              =   47
ts:    Top energy point                             =    2.5448 eV
ts:          >> Equilibrium contour << 
ts: Contour name                                    =    TS.Contour.c-Left
ts:   circle contour E_min                          =  -39.5000 eV
ts:   circle contour E_max                          =    0.4138 eV
ts:   circle contour points                         =   30
ts:   circle contour method                         =    Gauss-Legendre
ts: Contour name                                    =    TS.Contour.t-Left
ts:   tail contour E_min                            =    0.4138 eV
ts:   tail contour E_max                            =     Infinity
ts:   tail contour points                           =   10
ts:   tail contour method                           =    Gauss-Fermi (0kT)
ts: Contour name                                    =    TS.Contour.c-Right
ts:   circle contour E_min                          =  -40.5000 eV
ts:   circle contour E_max                          =   -0.5862 eV
ts:   circle contour points                         =   30
ts:   circle contour method                         =    Gauss-Legendre
ts: Contour name                                    =    TS.Contour.t-Right
ts:   tail contour E_min                            =   -0.5862 eV
ts:   tail contour E_max                            =     Infinity
ts:   tail contour points                           =   10
ts:   tail contour method                           =    Gauss-Fermi (0kT)
ts:         >> non-Equilibrium contour << 
ts: Device Green function imaginary Eta             = 0.1000E-03 eV
ts: Fermi-function cut-off                          =  5.000     kT
ts: Contour name                                    =    TS.Contour.nEq.neq
ts:   line contour E_min                            =   -0.5431 eV
ts:   line contour E_max                            =    0.5431 eV
ts:   line contour points                           =  109
ts:   line contour method                           =    Mid-rule
ts: **************************************************************

************************ Begin: TS CHECKS AND WARNINGS ************************
Without loosing performance you can increase the non-equilibrium integration precision.
You can add 5 more energy points in the non-equilibrium contours, for FREE!
You are initializing the electrode EDM. This may result in erroneous forces on electrode atoms. Do not use forces from electrodes.
Electrode Left will not update cross-terms or local region.
Electrode Left is using Bloch unfolding using the repeat scheme! Please use the tiling scheme (it is orders of magnitudes faster!).
Electrode Right will not update cross-terms or local region.
Electrode Right is using Bloch unfolding using the repeat scheme! Please use the tiling scheme (it is orders of magnitudes faster!).
Consider updating more elements. The charge conservation and force accuracy improves.
  TS.Elecs.DM.Update [cross-terms|all]
************************ End: TS CHECKS AND WARNINGS **************************

                  ****************************************
                   TRANSIESTA REPORTED IMPORTANT WARNINGS
                  ****************************************

>>> TranSiesta block information for FDF-file START <<<

%block TS.ChemPots
  Left
  Right
%endblock TS.ChemPots

%block TS.ChemPot.Left
  mu  V/2
  contour.eq
   begin
    c-Left
    t-Left
   end
%endblock TS.ChemPot.Left
%block TS.ChemPot.Right
  mu  - V/2
  contour.eq
   begin
    c-Right
    t-Right
   end
%endblock TS.ChemPot.Right
%block TS.Contour.c-Left
  part circle
     from -40.00000 eV + V/2 to -10. kT + V/2
      points 30
        method g-legendre
%endblock TS.Contour.c-Left
%block TS.Contour.t-Left
  part tail
     from prev to + inf
      points 10
        method g-fermi
%endblock TS.Contour.t-Left
%block TS.Contour.c-Right
  part circle
     from -40.00000 eV - V/2 to -10. kT - V/2
      points 30
        method g-legendre
%endblock TS.Contour.c-Right
%block TS.Contour.t-Right
  part tail
     from prev to + inf
      points 10
        method g-fermi
%endblock TS.Contour.t-Right
%block TS.Contours.nEq
    neq
%endblock TS.Contours.nEq

%block TS.Contour.nEq.neq
  part line
     from - |V|/2 - 5 kT to |V|/2 + 5 kT
      delta 0.01 eV
        method mid-rule
%endblock TS.Contour.nEq.neq

>>> TranSiesta block information for FDF-file END <<<


transiesta: Regions of atoms:
   ## (6): Elec.Left
     [ 1 -- 6 ]
   ## (6): Elec.Right
     [ 15 -- 20 ]
   -- (8): Device
     [ 7 -- 14 ]

  <sparsity:./ts_au_elec_111_abc.TSHS
    nrows_g=27 nrows=27 sparsity=44.2757 nnzs=32277, refcount: 3>
  <sparsity:(TM [--,--, 0] of: ./ts_au_elec_111_abc.TSHS)
    nrows_g=27 nrows=27 sparsity=25.1152 nnzs=18309, refcount: 3>
  <sparsity:(TM [--,--,-1] of: ./ts_au_elec_111_abc.TSHS)
    nrows_g=27 nrows=27 sparsity=9.4486 nnzs=6888, refcount: 3>
 Left principal cell is extending out with 96 elements:
    Atom 1 connects with atom 3
    Orbital 8 connects with orbital 26
    Hamiltonian value: |H(8,7046)|@R=-2 =  0.102E-18 eV
    Overlap          :  S(8,7046)|@R=-2 =   0.00    

Calculating all surface Green functions for: Left
 Fermi level shift in electrode (chemical potential) :        0.50000  eV
 Atoms available    / used atoms   :      3 /      3
 Orbitals available / used orbitals:     27 /     27
 Total self-energy calculations: 10754
 Bloch expansion k-points in A_1 direction [b_1]: 2
 Saving surface Green functions in: ts_au_111_capacitor_x2.TSGFLeft
 Estimated file size:    240.938 MB
 Lopez Sancho, Lopez Sancho & Rubio recursive surface self-energy calculation...
 Lopez Sancho, Lopez Sancho & Rubio: Mean/std iterations:     7.2553 /     4.5228
 Lopez Sancho, Lopez Sancho & Rubio: Min/Max iterations :          3 /         16
Done creating 'ts_au_111_capacitor_x2.TSGFLeft'.

  <sparsity:./ts_au_elec_111_abc.TSHS
    nrows_g=27 nrows=27 sparsity=44.2757 nnzs=32277, refcount: 3>
  <sparsity:(TM [--,--, 0] of: ./ts_au_elec_111_abc.TSHS)
    nrows_g=27 nrows=27 sparsity=25.1152 nnzs=18309, refcount: 3>
  <sparsity:(TM [--,--, 1] of: ./ts_au_elec_111_abc.TSHS)
    nrows_g=27 nrows=27 sparsity=9.4486 nnzs=6888, refcount: 3>
 Right principal cell is extending out with 96 elements:
    Atom 3 connects with atom 1
    Orbital 26 connects with orbital 8
    Hamiltonian value: |H(26,6353)|@R=2 =  0.102E-18 eV
    Overlap          :  S(26,6353)|@R=2 =   0.00    

Calculating all surface Green functions for: Right
 Fermi level shift in electrode (chemical potential) :       -0.50000  eV
 Atoms available    / used atoms   :      3 /      3
 Orbitals available / used orbitals:     27 /     27
 Total self-energy calculations: 10754
 Bloch expansion k-points in A_1 direction [b_1]: 2
 Saving surface Green functions in: ts_au_111_capacitor_x2.TSGFRight
 Estimated file size:    240.938 MB
 Lopez Sancho, Lopez Sancho & Rubio recursive surface self-energy calculation...
 Lopez Sancho, Lopez Sancho & Rubio: Mean/std iterations:     8.3666 /     5.0341
 Lopez Sancho, Lopez Sancho & Rubio: Min/Max iterations :          3 /         16
Done creating 'ts_au_111_capacitor_x2.TSGFRight'.


                     ====================================
                        Single-point calculation
                     ====================================

superc: Internal auxiliary supercell:     5 x     9 x     3  =     135
superc: Number of atoms, orbitals, and projectors:   2700  24300  51300

outcell: Unit cell vectors (Ang):
        5.846220    0.000000    0.000000
        1.461555    2.531488    0.000000
        0.000000    0.000000   31.027221

outcell: Cell vector modules (Ang)   :    5.846220    2.923110   31.027221
outcell: Cell angles (23,13,12) (deg):     90.0000     90.0000     60.0000
outcell: Cell volume (Ang**3)        :    459.1915
<dSpData1D:S at geom step 0
  <sparsity:sparsity for geom step 0
    nrows_g=180 nrows=48 sparsity=1.6763 nnzs=54312, refcount: 7>
  <dData1D:(new from dSpData1D) n=54312, refcount: 1>
refcount: 1>
new_DM -- step:     1
Initializing Density Matrix...

Attempting to read DM, EDM from TSDE file... Failed...
Attempting to read DM from file... Failed...
DM filled with atomic data:
<dSpData2D:DM initialized from atoms
  <sparsity:sparsity for geom step 0
    nrows_g=180 nrows=48 sparsity=1.6763 nnzs=54312, refcount: 8>
  <dData2D:DM n=54312 m=1, refcount: 1>
refcount: 1>

transiesta: Initialization run using siesta

ts: We highly recommend you to perform 0-bias calculations before *any* bias calculations

No. of atoms with KB's overlaping orbs in proc 0. Max # of overlaps:     144     237
New grid distribution:   1
           1       1:   30    1:    8    1:   60
           2       1:   30    1:    8   61:  120
           3       1:   30    1:    8  121:  180
           4       1:   30    9:   15    1:   60
           5       1:   30    9:   15   61:  120
           6       1:   30    9:   15  121:  180

InitMesh: MESH =    60 x    30 x   360 =      648000
InitMesh: (bp) =    30 x    15 x   180 =       81000
InitMesh: Mesh cutoff (required, used) =   350.000   372.067 Ry
ExtMesh (bp) on 0 =   122 x   100 x   152 =     1854400
New grid distribution:   2
           1       1:   30    1:   15  138:  158
           2       1:   30    1:   15   44:  115
           3       1:   30    1:   15  159:  180
           4       1:   30    1:   15   23:   43
           5       1:   30    1:   15    1:   22
           6       1:   30    1:   15  116:  137
New grid distribution:   3
           1       1:   30    1:   15    1:   28
           2       1:   30    1:   15   57:   96
           3       1:   30    1:   15  153:  180
           4       1:   30    1:   15   29:   56
           5       1:   30    1:   15   97:  124
           6       1:   30    1:   15  125:  152
Setting up quadratic distribution...
ExtMesh (bp) on 0 =   122 x   107 x   113 =     1475102
PhiOnMesh: Number of (b)points on node 0 =                 9450
PhiOnMesh: nlist on node 0 =               772882

ts-voltage: Ramp  0.500 eV to -0.500 eV placed in cell
ts-Vha: -0.11478195E-05 eV
cdiag-debug: jobz=N, algo= 5, Node=    1, work=       20768, rwork=        3600, iwork=        1080
cdiag-debug: jobz=N, algo= 5, Node=    2, work=       20768, rwork=        3600, iwork=        1080
cdiag-debug: jobz=N, algo= 5, Node=    3, work=       20768, rwork=        3600, iwork=        1080
cdiag-debug: jobz=N, algo= 5, Node=    4, work=       20768, rwork=        3600, iwork=        1080
cdiag-debug: jobz=N, algo= 5, Node=    5, work=       20768, rwork=        3600, iwork=        1080
cdiag-debug: jobz=N, algo= 5, Node=    0, work=       20768, rwork=        3600, iwork=        1080

stepf: Fermi-Dirac step function
cdiag-debug: jobz=V, algo= 5, Node=    5, work=       20768, rwork=       10548, iwork=        1080
cdiag-debug: jobz=V, algo= 5, Node=    1, work=       20768, rwork=       10548, iwork=        1080
cdiag-debug: jobz=V, algo= 5, Node=    2, work=       20768, rwork=       10548, iwork=        1080
cdiag-debug: jobz=V, algo= 5, Node=    3, work=       20768, rwork=       10548, iwork=        1080
cdiag-debug: jobz=V, algo= 5, Node=    4, work=       20768, rwork=       10548, iwork=        1080
cdiag-debug: jobz=V, algo= 5, Node=    0, work=       20768, rwork=       10548, iwork=        1080
ts-Vha: -0.13710843E+02 eV

siesta: Program's energy decomposition (eV):
siesta: Ebs     =       333.973368
siesta: Eions   =     23424.498348
siesta: Ena     =      1167.255813
siesta: Ekin    =     12439.927909
siesta: Enl     =     -5723.867652
siesta: Eso     =         0.000000
siesta: Edftu   =         0.000000
siesta: DEna    =       234.548390
siesta: DUscf   =        22.940259
siesta: DUext   =         0.000000
siesta: Exc     =     -2796.765649
siesta: eta*DQ  =         0.000000
siesta: Emadel  =         0.000000
siesta: Emeta   =         0.000000
siesta: Emolmec =         0.000000
siesta: Ekinion =         0.000000
siesta: Eharris =    -18050.220389
siesta: Etot    =    -18080.459278
siesta: FreeEng =    -18080.462726

        iscf     Eharris(eV)        E_KS(eV)     FreeEng(eV)     dDmax    Ef(eV) dHmax(eV)
   scf:    1   -18050.220389   -18080.459278   -18080.462726  0.237449 -2.582722 21.456005
timer: Routine,Calls,Time,% = IterSCF        1      14.852  74.84
ts-Vha:  0.12683218E+02 eV
   scf:    2   -18063.307887   -18080.429788   -18080.433449  0.050530 -2.341927 23.510220
ts-Vha:  0.12862534E+00 eV
   scf:    3   -18087.667377   -18085.890338   -18085.894144  0.030586 -2.513317  5.147232
ts-Vha: -0.38608756E+01 eV
   scf:    4   -18087.097789   -18086.737503   -18086.741211  0.013192 -2.561513  4.368197
ts-Vha:  0.59339496E+01 eV
   scf:    5   -18085.029704   -18086.966004   -18086.971263  0.035074 -2.471073 12.851142
ts-Vha: -0.56127203E+02 eV
   scf:    6   -17840.183156   -18012.522116   -18012.525778  0.140391 -3.407823 91.206800
ts-Vha: -0.15941408E+02 eV
   scf:    7   -18112.604294   -18083.423805   -18083.431086  0.093198 -2.695045 23.896980
ts-Vha: -0.28932148E+02 eV
   scf:    8   -18054.025604   -18071.027606   -18071.031414  0.053340 -2.964762 42.826688
ts-Vha: -0.28061756E+02 eV
   scf:    9   -18073.389940   -18072.270870   -18072.273960  0.013543 -3.034174 41.088960
ts-Vha: -0.73757587E+01 eV
   scf:   10   -18096.223581   -18089.420031   -18089.427554  0.079130 -2.845982 10.363767
ts-Vha: -0.11370900E+02 eV
   scf:   11   -18085.649006   -18087.733218   -18087.741047  0.011457 -2.897263 16.917986
ts-Vha: -0.25529405E+01 eV
   scf:   12   -18091.121148   -18090.400614   -18090.408152  0.027044 -2.789464  2.630822
ts-Vha: -0.20476598E+01 eV
   scf:   13   -18090.463121   -18090.435495   -18090.443035  0.002856 -2.786083  1.854014
ts-Vha: -0.11722057E+01 eV
   scf:   14   -18090.447274   -18090.452836   -18090.460642  0.006822 -2.760031  0.395840
ts-Vha: -0.11759163E+01 eV
   scf:   15   -18090.452891   -18090.452864   -18090.460669  0.000074 -2.760178  0.403104
ts-Vha: -0.10761484E+01 eV
   scf:   16   -18090.492801   -18090.474077   -18090.481906  0.002637 -2.767890  0.175228
ts-Vha: -0.94209931E+00 eV
   scf:   17   -18090.506327   -18090.492737   -18090.500575  0.004743 -2.784454  0.144628
ts-Vha: -0.97964804E+00 eV
   scf:   18   -18090.491118   -18090.492082   -18090.499914  0.001221 -2.787444  0.080926
ts-Vha: -0.97714084E+00 eV
   scf:   19   -18090.493092   -18090.492604   -18090.500439  0.000459 -2.788341  0.069806
ts-Vha: -0.98477081E+00 eV
   scf:   20   -18090.493589   -18090.493125   -18090.500958  0.000650 -2.790372  0.064282
ts-Vha: -0.10105964E+01 eV
   scf:   21   -18090.496049   -18090.494821   -18090.502587  0.003238 -2.793035  0.026419
ts-Vha: -0.10090409E+01 eV
   scf:   22   -18090.495182   -18090.495021   -18090.502761  0.000900 -2.792458  0.016785
ts-Vha: -0.10106294E+01 eV
   scf:   23   -18090.495151   -18090.495090   -18090.502809  0.000456 -2.792746  0.011959
ts-Vha: -0.10104282E+01 eV
   scf:   24   -18090.495262   -18090.495183   -18090.502874  0.000379 -2.794171  0.012958
ts-Vha: -0.10104542E+01 eV
   scf:   25   -18090.495233   -18090.495209   -18090.502888  0.000167 -2.794573  0.010084
ts-Vha: -0.10118611E+01 eV
   scf:   26   -18090.495224   -18090.495211   -18090.502881  0.000106 -2.794884  0.008411
ts-Vha: -0.10112301E+01 eV
   scf:   27   -18090.495261   -18090.495236   -18090.502898  0.000146 -2.795008  0.007525
ts-Vha: -0.10126875E+01 eV
   scf:   28   -18090.495329   -18090.495285   -18090.502927  0.000301 -2.795120  0.008414
ts-Vha: -0.10095227E+01 eV
   scf:   29   -18090.495288   -18090.495289   -18090.502939  0.000173 -2.794224  0.006560
ts-Vha: -0.10098077E+01 eV
   scf:   30   -18090.495312   -18090.495301   -18090.502943  0.000111 -2.794248  0.004893
ts-Vha: -0.10102806E+01 eV
   scf:   31   -18090.495309   -18090.495305   -18090.502944  0.000036 -2.794274  0.003979
ts-Vha: -0.10116481E+01 eV
   scf:   32   -18090.495339   -18090.495323   -18090.502948  0.000163 -2.794512  0.001070
ts-Vha: -0.10120393E+01 eV
   scf:   33   -18090.495328   -18090.495325   -18090.502948  0.000027 -2.794540  0.001048
ts-Vha: -0.10118134E+01 eV
   scf:   34   -18090.495323   -18090.495324   -18090.502948  0.000013 -2.794515  0.000856

SCF Convergence by DM+H criterion
max |DM_out - DM_in|         :     0.0000125617
max |H_out - H_in|      (eV) :     0.0008564848
SCF cycle converged after 34 iterations

                     ***************************
                     *  WELCOME TO TRANSIESTA  *
                     ***************************

ts-Vha: -0.10118134E+01 eV

transiesta: created H and S sparsity pattern:
  <sparsity:(M of: G ((UC of: T T T sparsity for geom step 0)))
    nrows_g=180 nrows=180 sparsity=.2632 nnzs=8528, refcount: 1>

transiesta: created local update sparsity pattern:
  <sparsity:(M of: T T T sparsity for geom step 0)
    nrows_g=180 nrows=48 sparsity=.0000 nnzs=0, refcount: 1>

transiesta: created update sparsity pattern:
  <sparsity:G ((UC of: (M of: T T T sparsity for geom step 0)))
    nrows_g=180 nrows=180 sparsity=.0800 nnzs=2592, refcount: 1>

transiesta: Determining an optimal tri-matrix using: atom+Left
transiesta: Established a near-optimal partition for the tri-diagonal matrix.
BTD partitions (4): 
  [ [45] * 4 ]
transiesta: Matrix elements in % of full matrix:  62.50000 %

transiesta: mem of electrodes (static):                     0.27MB
transiesta: mem of global update arrays (static):           0.42MB
transiesta: mem of master node sparse arrays:               0.00MB
transiesta: mem of tri-diagonal matrices:                   0.62MB
transiesta: Total memory usage:                             1.86MB

transiesta: Charge distribution, target =    220.00000
Total charge                  [Q]  :    220.00000
Device                        [D]  :     87.39896
Left                          [E1] :     65.40214
Left                 / device [C1] :      0.61233
Right                         [E2] :     65.40213
Right                / device [C2] :      0.61234
Other                         [O]  :      0.57209
Excess charge                [dQ]  :  1.13687E-13

ts-err-D: ij(   55,    55), M = 0.78089   , ew = -.39132E-1, em = 0.39132E-1. avg_em = -.23496E-04
ts-err-E: ij(   55,    55), M = -3.3562   , ew = -.61351E-2, em = 0.61351E-2. avg_em = -.25613E-05
ts-w-q:               qP1       qP2
ts-w-q:            44.213    43.091
ts-q:         D        E1        C1        E2        C2        dQ
ts-q:    87.304    65.402     0.612    65.402     0.612 -.952E-01
ts-Vha:  0.25760116E+01 eV

siesta: Program's energy decomposition (eV):
siesta: Ebs     =     -2282.336084
siesta: Eions   =     23424.498348
siesta: Ena     =      1167.255813
siesta: Ekin    =     12728.018118
siesta: Enl     =     -5899.727026
siesta: Eso     =         0.000000
siesta: Edftu   =         0.000000
siesta: DEna    =       156.715550
siesta: DUscf   =        18.375224
siesta: DUext   =         0.000000
siesta: Exc     =     -2825.321210
siesta: eta*DQ  =         0.000000
siesta: Emadel  =         0.000000
siesta: Emeta   =         0.000000
siesta: Emolmec =         0.000000
siesta: Ekinion =         0.000000
siesta: Eharris =    -18056.800249
siesta: Etot    =    -18079.181878
siesta: FreeEng =    -18079.181878
ts: E-dN      =         0.560846
ts: Band Stru =      -911.505395
ts: Kinetic   =      5085.302004
ts: Ion-elec  =    -92969.917608
ts: Eharris   =    -22164.470306
ts: Etot      =    -22186.851935
ts: FreeEng   =    -22186.851935

        iscf     Eharris(eV)        E_KS(eV)     FreeEng(eV)     dDmax    Ef(eV) dHmax(eV)
ts-scf:    1   -22164.470306   -22186.851935   -22186.851935  0.087752 -2.794515 24.526674
timer: Routine,Calls,Time,% = TS             1       2.158   0.43
ts-err-D: ij(  118,   118), M = 0.81087   , ew = 0.65892E-3, em = 0.65892E-3. avg_em = -.18943E-06
ts-err-E: ij(   55,    55), M = -2.9923   , ew = -.13340E-3, em = 0.13340E-3. avg_em = -.36336E-08
ts-w-q:               qP1       qP2
ts-w-q:            43.285    44.289
ts-q:         D        E1        C1        E2        C2        dQ
ts-q:    87.574    65.402     0.612    65.402     0.612 0.175E+00
ts-Vha: -0.55572452E+01 eV
ts-scf:    2   -22152.181904   -22190.375493   -22190.375493  0.176223 -2.794515 25.664363
ts-err-D: ij(   98,    98), M = 0.27927E-1, ew = 0.33713E-2, em = 0.33713E-2. avg_em = 0.37282E-05
ts-err-E: ij(   98,  1007), M = 0.25352E-2, ew = -.13567E-2, em = -.13567E-2. avg_em = 0.15904E-05
ts-w-q:               qP1       qP2
ts-w-q:            43.681    43.640
ts-q:         D        E1        C1        E2        C2        dQ
ts-q:    87.321    65.402     0.612    65.402     0.612 -.777E-01
ts-Vha: -0.30337029E+00 eV
ts-scf:    3   -22196.587445   -22198.127622   -22198.127622  0.091900 -2.794515  1.629567
ts-err-D: ij(   80,    80), M = 0.33204E-1, ew = -.23918E-2, em = 0.23918E-2. avg_em = 0.53283E-05
ts-err-E: ij(   80,    80), M = -.92891E-1, ew = -.11740E-2, em = 0.11740E-2. avg_em = 0.26273E-05
ts-w-q:               qP1       qP2
ts-w-q:            43.719    43.668
ts-q:         D        E1        C1        E2        C2        dQ
ts-q:    87.386    65.402     0.612    65.402     0.612 -.125E-01
ts-Vha: -0.83033778E+00 eV
ts-scf:    4   -22198.604304   -22198.398863   -22198.398863  0.004822 -2.794515  0.808659
ts-err-D: ij(   98,    98), M = 0.28564E-1, ew = 0.28743E-2, em = 0.28743E-2. avg_em = 0.34730E-05
ts-err-E: ij(  107,  7298), M = 0.24871E-2, ew = -.12468E-2, em = -.12468E-2. avg_em = 0.16083E-05
ts-w-q:               qP1       qP2
ts-w-q:            43.698    43.693
ts-q:         D        E1        C1        E2        C2        dQ
ts-q:    87.391    65.402     0.612    65.402     0.612 -.775E-02
ts-Vha: -0.98268276E+00 eV
ts-scf:    5   -22198.481395   -22198.459986   -22198.459986  0.005324 -2.794515  0.843497
ts-err-D: ij(  107,   107), M = 0.29092E-1, ew = 0.32088E-2, em = 0.32088E-2. avg_em = 0.33726E-05
ts-err-E: ij(   98,  1007), M = 0.24580E-2, ew = -.14358E-2, em = -.14358E-2. avg_em = 0.15912E-05
ts-w-q:               qP1       qP2
ts-w-q:            43.725    43.672
ts-q:         D        E1        C1        E2        C2        dQ
ts-q:    87.397    65.402     0.612    65.402     0.612 -.205E-02
ts-Vha: -0.91981024E+00 eV
ts-scf:    6   -22198.417970   -22198.452662   -22198.452662  0.007096 -2.794515  0.486689
ts-err-D: ij(   98,    98), M = 0.29161E-1, ew = 0.33990E-2, em = 0.33990E-2. avg_em = 0.26584E-05
ts-err-E: ij(   98,  1007), M = 0.24510E-2, ew = -.15338E-2, em = -.15338E-2. avg_em = 0.12091E-05
ts-w-q:               qP1       qP2
ts-w-q:            43.711    43.681
ts-q:         D        E1        C1        E2        C2        dQ
ts-q:    87.393    65.402     0.612    65.402     0.612 -.622E-02
ts-Vha: -0.93659138E+00 eV
ts-scf:    7   -22198.456961   -22198.458475   -22198.458475  0.001383 -2.794515  0.118486
ts-err-D: ij(  107,   107), M = 0.29283E-1, ew = 0.32203E-2, em = 0.32203E-2. avg_em = 0.22188E-05
ts-err-E: ij(   98,  1007), M = 0.24639E-2, ew = -.14731E-2, em = -.14731E-2. avg_em = 0.10275E-05
ts-w-q:               qP1       qP2
ts-w-q:            43.708    43.682
ts-q:         D        E1        C1        E2        C2        dQ
ts-q:    87.390    65.402     0.612    65.402     0.612 -.904E-02
ts-Vha: -0.90803414E+00 eV
ts-scf:    8   -22198.433496   -22198.445618   -22198.445618  0.001735 -2.794515  0.112469
ts-err-D: ij(  107,   107), M = 0.29344E-1, ew = 0.33839E-2, em = 0.33839E-2. avg_em = 0.22099E-05
ts-err-E: ij(   98,  1007), M = 0.24585E-2, ew = -.15571E-2, em = -.15571E-2. avg_em = 0.10006E-05
ts-w-q:               qP1       qP2
ts-w-q:            43.708    43.686
ts-q:         D        E1        C1        E2        C2        dQ
ts-q:    87.394    65.402     0.612    65.402     0.612 -.495E-02
ts-Vha: -0.95006511E+00 eV
ts-scf:    9   -22198.476694   -22198.463871   -22198.463871  0.000581 -2.794515  0.020182
ts-err-D: ij(  107,   107), M = 0.29345E-1, ew = 0.33839E-2, em = 0.33839E-2. avg_em = 0.22310E-05
ts-err-E: ij(   98,  1007), M = 0.24586E-2, ew = -.15572E-2, em = -.15572E-2. avg_em = 0.10111E-05
ts-w-q:               qP1       qP2
ts-w-q:            43.708    43.686
ts-q:         D        E1        C1        E2        C2        dQ
ts-q:    87.394    65.402     0.612    65.402     0.612 -.545E-02
ts-Vha: -0.94495606E+00 eV
ts-scf:   10   -22198.459270   -22198.461253   -22198.461253  0.000067 -2.794515  0.012544
ts-err-D: ij(   98,    98), M = 0.29383E-1, ew = 0.33552E-2, em = 0.33552E-2. avg_em = 0.23425E-05
ts-err-E: ij(   98,  1007), M = 0.24529E-2, ew = -.15488E-2, em = -.15488E-2. avg_em = 0.10711E-05
ts-w-q:               qP1       qP2
ts-w-q:            43.708    43.686
ts-q:         D        E1        C1        E2        C2        dQ
ts-q:    87.393    65.402     0.612    65.402     0.612 -.550E-02
ts-Vha: -0.94583480E+00 eV
ts-scf:   11   -22198.457215   -22198.459225   -22198.459225  0.000436 -2.794515  0.009013
ts-err-D: ij(   98,    98), M = 0.29402E-1, ew = 0.33120E-2, em = 0.33120E-2. avg_em = 0.24172E-05
ts-err-E: ij(   98,  1007), M = 0.24486E-2, ew = -.15310E-2, em = -.15310E-2. avg_em = 0.11140E-05
ts-w-q:               qP1       qP2
ts-w-q:            43.708    43.685
ts-q:         D        E1        C1        E2        C2        dQ
ts-q:    87.393    65.402     0.612    65.402     0.612 -.548E-02
ts-Vha: -0.94602415E+00 eV
ts-scf:   12   -22198.457105   -22198.458156   -22198.458156  0.000272 -2.794515  0.006934
ts-err-D: ij(   98,    98), M = 0.29398E-1, ew = 0.33176E-2, em = 0.33176E-2. avg_em = 0.24373E-05
ts-err-E: ij(   98,  1007), M = 0.24475E-2, ew = -.15333E-2, em = -.15333E-2. avg_em = 0.11221E-05
ts-w-q:               qP1       qP2
ts-w-q:            43.708    43.686
ts-q:         D        E1        C1        E2        C2        dQ
ts-q:    87.394    65.402     0.612    65.402     0.612 -.523E-02
ts-Vha: -0.94603574E+00 eV
ts-scf:   13   -22198.459691   -22198.459025   -22198.459025  0.000098 -2.794515  0.003934
ts-err-D: ij(   98,    98), M = 0.29406E-1, ew = 0.32810E-2, em = 0.32810E-2. avg_em = 0.24794E-05
ts-err-E: ij(  107,  7298), M = 0.24450E-2, ew = -.15175E-2, em = -.15175E-2. avg_em = 0.11479E-05
ts-w-q:               qP1       qP2
ts-w-q:            43.708    43.686
ts-q:         D        E1        C1        E2        C2        dQ
ts-q:    87.394    65.402     0.612    65.402     0.612 -.488E-02
ts-Vha: -0.94736605E+00 eV
ts-scf:   14   -22198.460198   -22198.459755   -22198.459755  0.000160 -2.794515  0.003210
ts-err-D: ij(   98,    98), M = 0.29405E-1, ew = 0.32854E-2, em = 0.32854E-2. avg_em = 0.24601E-05
ts-err-E: ij(  107,  7298), M = 0.24459E-2, ew = -.15194E-2, em = -.15194E-2. avg_em = 0.11380E-05
ts-w-q:               qP1       qP2
ts-w-q:            43.708    43.686
ts-q:         D        E1        C1        E2        C2        dQ
ts-q:    87.394    65.402     0.612    65.402     0.612 -.492E-02
ts-Vha: -0.94723473E+00 eV
ts-scf:   15   -22198.459918   -22198.459839   -22198.459839  0.000041 -2.794515  0.001819
ts-err-D: ij(   98,    98), M = 0.29406E-1, ew = 0.32794E-2, em = 0.32794E-2. avg_em = 0.24660E-05
ts-err-E: ij(   98,  1007), M = 0.24457E-2, ew = -.15168E-2, em = -.15168E-2. avg_em = 0.11418E-05
ts-w-q:               qP1       qP2
ts-w-q:            43.708    43.686
ts-q:         D        E1        C1        E2        C2        dQ
ts-q:    87.394    65.402     0.612    65.402     0.612 -.490E-02
ts-Vha: -0.94728425E+00 eV
ts-scf:   16   -22198.459869   -22198.459863   -22198.459863  0.000023 -2.794515  0.001681
ts-err-D: ij(   98,    98), M = 0.29404E-1, ew = 0.32857E-2, em = 0.32857E-2. avg_em = 0.24742E-05
ts-err-E: ij(  107,  1178), M = 0.24458E-2, ew = -.15196E-2, em = -.15196E-2. avg_em = 0.11447E-05
ts-w-q:               qP1       qP2
ts-w-q:            43.708    43.686
ts-q:         D        E1        C1        E2        C2        dQ
ts-q:    87.394    65.402     0.612    65.402     0.612 -.490E-02
ts-Vha: -0.94731608E+00 eV
ts-scf:   17   -22198.460006   -22198.459931   -22198.459931  0.000017 -2.794515  0.001230
ts-err-D: ij(   98,    98), M = 0.29402E-1, ew = 0.32941E-2, em = 0.32941E-2. avg_em = 0.24794E-05
ts-err-E: ij(   98,  1007), M = 0.24460E-2, ew = -.15232E-2, em = -.15232E-2. avg_em = 0.11459E-05
ts-w-q:               qP1       qP2
ts-w-q:            43.708    43.686
ts-q:         D        E1        C1        E2        C2        dQ
ts-q:    87.394    65.402     0.612    65.402     0.612 -.497E-02
ts-Vha: -0.94701633E+00 eV
ts-scf:   18   -22198.459578   -22198.459714   -22198.459714  0.000019 -2.794515  0.000877

SCF Convergence by DM+H+dQ criterion
max |DM_out - DM_in|         :     0.0000187362
max |H_out - H_in|      (eV) :     0.0008769014
     Q(TS) - Q(dev)          :    -0.0049714448
SCF cycle converged after 18 iterations

Using DM_out to compute the final energy and forces
No. of atoms with KB's overlaping orbs in proc 0. Max # of overlaps:     144     237
ts-Vha: -0.94701633E+00 eV

siesta: E_KS(eV) =           -18090.2402

siesta: E_KS - E_eggbox =    -18090.2402

siesta: Atomic forces (eV/Ang):
----------------------------------------
   Tot    0.000000   -0.000000    0.336294
----------------------------------------
   Max    0.245483
   Res    0.063458    sqrt( Sum f_i^2 / 3N )
----------------------------------------
   Max    0.245483    constrained

ts: Atomic forces (eV/Ang):
----------------------------------------
   Tot   -0.000000   -0.000000    0.103454
----------------------------------------
   Max    0.245483
   Res    0.067720    sqrt( Sum f_i^2 / 3N )
----------------------------------------
   Max    0.245483    constrained

Stress tensor Voigt[x,y,z,yz,xz,xy] (kbar):       38.71       38.71       27.49        0.00       -0.00        0.00
(Free)E + p*V (eV/cell)   -18100.2632
Target enthalpy (eV/cell)   -18090.2402

mulliken: Atomic and Orbital Populations:

Species: Au                  
Atom  Qatom  Qorb
               6s      5dxy    5dyz    5dz2    5dxz    5dx2-y2 6Ppy    6Ppz    
               6Ppx    
   1 11.002   1.007   1.907   1.918   1.893   1.918   1.907   0.151   0.149
              0.151
   2 11.002   1.007   1.907   1.918   1.893   1.918   1.907   0.151   0.149
              0.151
   3 10.996   0.998   1.906   1.923   1.889   1.923   1.906   0.150   0.152
              0.150
   4 10.996   0.998   1.906   1.923   1.889   1.923   1.906   0.150   0.152
              0.150
   5 10.999   1.005   1.909   1.919   1.890   1.919   1.909   0.151   0.146
              0.151
   6 10.999   1.005   1.909   1.919   1.890   1.919   1.909   0.151   0.146
              0.151
   7 10.976   0.989   1.908   1.927   1.888   1.927   1.908   0.146   0.136
              0.146
   8 10.976   0.989   1.908   1.927   1.888   1.927   1.908   0.146   0.136
              0.146
   9 11.032   1.062   1.891   1.938   1.926   1.938   1.891   0.138   0.112
              0.138
  10 11.032   1.062   1.891   1.938   1.926   1.938   1.891   0.138   0.112
              0.138
  11 11.021   1.058   1.891   1.938   1.926   1.938   1.891   0.137   0.106
              0.137
  12 11.021   1.058   1.891   1.938   1.926   1.938   1.891   0.137   0.106
              0.137
  13 10.974   0.988   1.908   1.928   1.888   1.928   1.908   0.146   0.136
              0.146
  14 10.974   0.988   1.908   1.928   1.888   1.928   1.908   0.146   0.136
              0.146
  15 10.999   1.005   1.909   1.919   1.890   1.919   1.909   0.151   0.146
              0.151
  16 10.999   1.005   1.909   1.919   1.890   1.919   1.909   0.151   0.146
              0.151
  17 10.996   0.998   1.906   1.923   1.889   1.923   1.906   0.150   0.152
              0.150
  18 10.996   0.998   1.906   1.923   1.889   1.923   1.906   0.150   0.152
              0.150
  19 11.002   1.007   1.907   1.918   1.893   1.918   1.907   0.151   0.149
              0.151
  20 11.002   1.007   1.907   1.918   1.893   1.918   1.907   0.151   0.149
              0.151

mulliken: Qtot =      219.995

transiesta: Charge distribution, target =    220.00000
Total charge                  [Q]  :    219.99503
Device                        [D]  :     87.39399
Left                          [E1] :     65.40214
Left                 / device [C1] :      0.61233
Right                         [E2] :     65.40213
Right                / device [C2] :      0.61234
Other                         [O]  :      0.57209
Excess charge                [dQ]  : -4.97144E-03


coxmol: Writing XMOL coordinates into file ts_au_111_capacitor_x2.xyz                                          

siesta: Program's energy decomposition (eV):
siesta: Ebs     =     -1525.404942
siesta: Eions   =     23424.498348
siesta: Ena     =      1167.255813
siesta: Ekin    =     12734.649440
siesta: Enl     =     -5902.769870
siesta: Eso     =         0.000000
siesta: Edftu   =         0.000000
siesta: DEna    =       154.493817
siesta: DUscf   =         7.567346
siesta: DUext   =         0.000000
siesta: Exc     =     -2826.938375
siesta: eta*DQ  =         0.000000
siesta: Emadel  =         0.000000
siesta: Emeta   =         0.000000
siesta: Emolmec =         0.000000
siesta: Ekinion =         0.000000
siesta: Eharris =    -18090.240039
siesta: Etot    =    -18090.240176
siesta: FreeEng =    -18090.240176
ts: E-dN      =         0.011365
ts: Band Stru =      -593.436124
ts: Kinetic   =      5091.933326
ts: Ion-elec  =    -93754.939154
ts: Eharris   =    -22198.459578
ts: Etot      =    -22198.459714
ts: FreeEng   =    -22198.459714

siesta: Final energy (eV):
siesta:  Band Struct. =   -1525.404942
siesta:       Kinetic =   12734.649440
siesta:       Hartree =   43365.599018
siesta:       Edftu   =       0.000000
siesta:       Eso     =       0.000000
siesta:    Ext. field =       0.000000
siesta:   Exch.-corr. =   -2826.938375
siesta:  Ion-electron =  -97289.424365
siesta:       Ion-ion =   25925.874106
siesta:       Ekinion =       0.000000
siesta:         Total =  -18090.240176
ts:         E-dN  =       0.011365
ts:     Band Stru =    -593.436124
ts:       Kinetic =    5091.933326
ts:      Ion-elec =  -93754.939154
ts:         Total =  -22198.459714
siesta:         Fermi =      -2.794515

siesta: Atomic forces (eV/Ang):
siesta:      1   -0.000000   -0.000000    0.149226
siesta:      2    0.000000   -0.000000    0.149226
siesta:      3   -0.000000   -0.000000    0.007403
siesta:      4    0.000000   -0.000000    0.007403
siesta:      5    0.000000    0.000000    0.014869
siesta:      6   -0.000000    0.000000    0.014869
siesta:      7   -0.000000   -0.000000   -0.187328
siesta:      8    0.000000   -0.000000   -0.187328
siesta:      9    0.000000   -0.000000   -0.024811
siesta:     10    0.000000   -0.000000   -0.024811
siesta:     11   -0.000000    0.000000    0.018383
siesta:     12    0.000000    0.000000    0.018383
siesta:     13   -0.000000    0.000000    0.245483
siesta:     14    0.000000    0.000000    0.245483
siesta:     15   -0.000000   -0.000000   -0.021206
siesta:     16    0.000000   -0.000000   -0.021206
siesta:     17   -0.000000   -0.000000    0.004650
siesta:     18    0.000000   -0.000000    0.004650
siesta:     19    0.000000    0.000000   -0.038522
siesta:     20    0.000000    0.000000   -0.038522
siesta: ----------------------------------------
siesta:    Tot    0.000000   -0.000000    0.336294

ts: Atomic forces (eV/Ang):
ts:      1    0.000000    0.000000    0.000000
ts:      2    0.000000    0.000000    0.000000
ts:      3    0.000000    0.000000    0.000000
ts:      4    0.000000    0.000000    0.000000
ts:      5    0.000000    0.000000    0.000000
ts:      6    0.000000    0.000000    0.000000
ts:      7   -0.000000   -0.000000   -0.187328
ts:      8    0.000000   -0.000000   -0.187328
ts:      9    0.000000   -0.000000   -0.024811
ts:     10    0.000000   -0.000000   -0.024811
ts:     11   -0.000000    0.000000    0.018383
ts:     12    0.000000    0.000000    0.018383
ts:     13   -0.000000    0.000000    0.245483
ts:     14    0.000000    0.000000    0.245483
ts:     15    0.000000    0.000000    0.000000
ts:     16    0.000000    0.000000    0.000000
ts:     17    0.000000    0.000000    0.000000
ts:     18    0.000000    0.000000    0.000000
ts:     19    0.000000    0.000000    0.000000
ts:     20    0.000000    0.000000    0.000000
ts: ----------------------------------------
ts:    Tot   -0.000000   -0.000000    0.103454

siesta: Stress tensor (static) (eV/Ang**3):
siesta:     0.024163    0.000000   -0.000000
siesta:     0.000000    0.024163    0.000000
siesta:    -0.000000    0.000000    0.017157

siesta: Cell volume =        459.191485 Ang**3

siesta: Pressure (static):
siesta:                Solid            Molecule  Units
siesta:          -0.00023773         -0.00024151  Ry/Bohr**3
siesta:          -0.02182757         -0.02217500  eV/Ang**3
siesta:         -34.97200806        -35.52864862  kBar
(Free)E+ p_basis*V_orbitals  =      -18076.381703
(Free)Eharris+ p_basis*V_orbitals  =      -18076.381567
ts-Vha: -0.94701633E+00 eV

dhscf: Vacuum level (max, mean) =    2.364776    2.183334 eV

cite: Please see "ts_au_111_capacitor_x2.bib" for an exhaustive BiBTeX file.
cite: Please clearly indicate Siesta version in published work: v4.1.5-1-g384057250
cite: This calculation has made use of the following articles
cite: which are encouraged to be cited in a published work.
        Primary SIESTA paper
          DOI: www.doi.org/10.1088/0953-8984/14/11/302
        Primary TranSiesta paper
          DOI: www.doi.org/10.1103/PhysRevB.65.165401
        TranSiesta N-electrode
          DOI: www.doi.org/10.1016/j.cpc.2016.09.022

>> End of run:   3-NOV-2021  22:11:24
Job completed
